POS_CODE;COORDINATOR_NAME;COORDINATOR VISUALIZATION;SUBCOORDINATOR_NAME;SUBCOORDINATOR VISUALIZATION;SUPERVISOR;SUPERVISOR VISUALIZATION
6343;LEONARD DAHAN;V;;F;THIAGO MULLER PEREIRA GODINHO;V
8126;LEONARD DAHAN;V;;F;THIAGO MULLER PEREIRA GODINHO;V
13922;LEONARD DAHAN;V;;F;THIAGO MULLER PEREIRA GODINHO;V
91559;LEONARD DAHAN;V;;F;THIAGO MULLER PEREIRA GODINHO;V
6306;LEONARD DAHAN;V;;F;THIAGO MULLER PEREIRA GODINHO;V
6293;LEONARD DAHAN;V;;F;THIAGO MULLER PEREIRA GODINHO;V
7266;LEONARD DAHAN;V;;F;THIAGO MULLER PEREIRA GODINHO;V
7165;LEONARD DAHAN;V;;F;THIAGO MULLER PEREIRA GODINHO;V
102199;LEONARD DAHAN;V;;F;THIAGO MULLER PEREIRA GODINHO;V
6298;LEONARD DAHAN;V;;F;THIAGO MULLER PEREIRA GODINHO;V
6497;LEONARD DAHAN;V;;F;THIAGO MULLER PEREIRA GODINHO;V
6291;LEONARD DAHAN;V;;F;THIAGO MULLER PEREIRA GODINHO;V
92840;LEONARD DAHAN;V;;F;THIAGO MULLER PEREIRA GODINHO;V
92267;LEONARD DAHAN;V;;F;THIAGO MULLER PEREIRA GODINHO;V
6322;LEONARD DAHAN;V;;F;THIAGO MULLER PEREIRA GODINHO;V
23684;LEONARD DAHAN;V;;F;THIAGO MULLER PEREIRA GODINHO;V
12713;LEONARD DAHAN;V;;F;THIAGO MULLER PEREIRA GODINHO;V
97032;LEONARD DAHAN;V;;F;THIAGO MULLER PEREIRA GODINHO;V
8156;LEONARD DAHAN;V;;F;THIAGO MULLER PEREIRA GODINHO;V
8321;LEONARD DAHAN;V;;F;THIAGO MULLER PEREIRA GODINHO;V
6332;LEONARD DAHAN;V;;F;THIAGO MULLER PEREIRA GODINHO;V
101189;LEONARD DAHAN;V;;F;THIAGO MULLER PEREIRA GODINHO;V
8328;LEONARD DAHAN;V;;F;THIAGO MULLER PEREIRA GODINHO;V
8251;LEONARD DAHAN;V;;F;THIAGO MULLER PEREIRA GODINHO;V
6342;LEONARD DAHAN;V;;F;THIAGO MULLER PEREIRA GODINHO;V
12115;LEONARD DAHAN;V;;F;THIAGO MULLER PEREIRA GODINHO;V
6312;LEONARD DAHAN;V;;F;THIAGO MULLER PEREIRA GODINHO;V
7937;LEONARD DAHAN;V;;F;THIAGO MULLER PEREIRA GODINHO;V
7144;LEONARD DAHAN;V;;F;THIAGO MULLER PEREIRA GODINHO;V
89493;LEONARD DAHAN;V;;F;THIAGO MULLER PEREIRA GODINHO;V
7168;LEONARD DAHAN;V;;F;THIAGO MULLER PEREIRA GODINHO;V
14014;LEONARD DAHAN;V;;F;THIAGO MULLER PEREIRA GODINHO;V
6303;LEONARD DAHAN;V;;F;THIAGO MULLER PEREIRA GODINHO;V
6325;LEONARD DAHAN;V;;F;THIAGO MULLER PEREIRA GODINHO;V
101114;LEONARD DAHAN;V;;F;THIAGO MULLER PEREIRA GODINHO;V
6321;LEONARD DAHAN;V;;F;THIAGO MULLER PEREIRA GODINHO;V
6302;LEONARD DAHAN;V;;F;THIAGO MULLER PEREIRA GODINHO;V
6942;LEONARD DAHAN;V;;F;THIAGO MULLER PEREIRA GODINHO;V
6938;LEONARD DAHAN;V;;F;THIAGO MULLER PEREIRA GODINHO;V
8129;LEONARD DAHAN;V;;F;THIAGO MULLER PEREIRA GODINHO;V
8252;LEONARD DAHAN;V;;F;THIAGO MULLER PEREIRA GODINHO;V
8264;LEONARD DAHAN;V;;F;THIAGO MULLER PEREIRA GODINHO;V
22026;LEONARD DAHAN;V;;F;THIAGO MULLER PEREIRA GODINHO;V
8260;LEONARD DAHAN;V;;F;THIAGO MULLER PEREIRA GODINHO;V
7961;LEONARD DAHAN;V;;F;THIAGO MULLER PEREIRA GODINHO;V
8261;LEONARD DAHAN;V;;F;THIAGO MULLER PEREIRA GODINHO;V
8128;LEONARD DAHAN;V;;F;THIAGO MULLER PEREIRA GODINHO;V
8263;LEONARD DAHAN;V;;F;THIAGO MULLER PEREIRA GODINHO;V
6356;LEONARD DAHAN;V;;F;THIAGO MULLER PEREIRA GODINHO;V
8314;LEONARD DAHAN;V;;F;THIAGO MULLER PEREIRA GODINHO;V
8195;LEONARD DAHAN;V;;F;CLAUDIO VINICIUS COUTO DA SILVA;V
93934;LEONARD DAHAN;V;;F;CLAUDIO VINICIUS COUTO DA SILVA;V
93931;LEONARD DAHAN;V;;F;CLAUDIO VINICIUS COUTO DA SILVA;V
8068;LEONARD DAHAN;V;;F;CLAUDIO VINICIUS COUTO DA SILVA;V
7487;LEONARD DAHAN;V;;F;CLAUDIO VINICIUS COUTO DA SILVA;V
92919;LEONARD DAHAN;V;;F;CLAUDIO VINICIUS COUTO DA SILVA;V
43783;LEONARD DAHAN;V;;F;CLAUDIO VINICIUS COUTO DA SILVA;V
22220;LEONARD DAHAN;V;;F;CLAUDIO VINICIUS COUTO DA SILVA;V
8076;LEONARD DAHAN;V;;F;CLAUDIO VINICIUS COUTO DA SILVA;V
6899;LEONARD DAHAN;V;;F;CLAUDIO VINICIUS COUTO DA SILVA;V
96420;LEONARD DAHAN;V;;F;CLAUDIO VINICIUS COUTO DA SILVA;V
8211;LEONARD DAHAN;V;;F;CLAUDIO VINICIUS COUTO DA SILVA;V
97861;LEONARD DAHAN;V;;F;CLAUDIO VINICIUS COUTO DA SILVA;V
6143;LEONARD DAHAN;V;;F;CLAUDIO VINICIUS COUTO DA SILVA;V
11897;LEONARD DAHAN;V;;F;CLAUDIO VINICIUS COUTO DA SILVA;V
92921;LEONARD DAHAN;V;;F;CLAUDIO VINICIUS COUTO DA SILVA;V
32647;LEONARD DAHAN;V;;F;CLAUDIO VINICIUS COUTO DA SILVA;V
7474;LEONARD DAHAN;V;;F;CLAUDIO VINICIUS COUTO DA SILVA;V
5726;LEONARD DAHAN;V;;F;CLAUDIO VINICIUS COUTO DA SILVA;V
8078;LEONARD DAHAN;V;;F;CLAUDIO VINICIUS COUTO DA SILVA;V
93281;LEONARD DAHAN;V;;F;CLAUDIO VINICIUS COUTO DA SILVA;V
8208;LEONARD DAHAN;V;;F;CLAUDIO VINICIUS COUTO DA SILVA;V
8210;LEONARD DAHAN;V;;F;CLAUDIO VINICIUS COUTO DA SILVA;V
7896;LEONARD DAHAN;V;;F;CLAUDIO VINICIUS COUTO DA SILVA;V
7722;LEONARD DAHAN;V;;F;CLAUDIO VINICIUS COUTO DA SILVA;V
6618;LEONARD DAHAN;V;;F;CLAUDIO VINICIUS COUTO DA SILVA;V
7473;LEONARD DAHAN;V;;F;CLAUDIO VINICIUS COUTO DA SILVA;V
7500;LEONARD DAHAN;V;;F;CLAUDIO VINICIUS COUTO DA SILVA;V
99357;LEONARD DAHAN;V;;F;CLAUDIO VINICIUS COUTO DA SILVA;V
6964;LEONARD DAHAN;V;;F;CLAUDIO VINICIUS COUTO DA SILVA;V
12614;LEONARD DAHAN;V;;F;CLAUDIO VINICIUS COUTO DA SILVA;V
102181;LEONARD DAHAN;V;;F;CLAUDIO VINICIUS COUTO DA SILVA;V
8209;LEONARD DAHAN;V;;F;CLAUDIO VINICIUS COUTO DA SILVA;V
7100;LEONARD DAHAN;V;;F;CLAUDIO VINICIUS COUTO DA SILVA;V
5770;LEONARD DAHAN;V;;F;LUIS ANTONIO ALVES FERREIRA;V
7898;LEONARD DAHAN;V;;F;LUIS ANTONIO ALVES FERREIRA;V
11485;LEONARD DAHAN;V;;F;LUIS ANTONIO ALVES FERREIRA;V
7742;LEONARD DAHAN;V;;F;LUIS ANTONIO ALVES FERREIRA;V
45372;LEONARD DAHAN;V;;F;LUIS ANTONIO ALVES FERREIRA;V
104929;LEONARD DAHAN;V;;F;LUIS ANTONIO ALVES FERREIRA;V
12650;LEONARD DAHAN;V;;F;LUIS ANTONIO ALVES FERREIRA;V
100042;LEONARD DAHAN;V;;F;LUIS ANTONIO ALVES FERREIRA;V
102229;LEONARD DAHAN;V;;F;LUIS ANTONIO ALVES FERREIRA;V
8205;LEONARD DAHAN;V;;F;LUIS ANTONIO ALVES FERREIRA;V
8222;LEONARD DAHAN;V;;F;LUIS ANTONIO ALVES FERREIRA;V
8206;LEONARD DAHAN;V;;F;LUIS ANTONIO ALVES FERREIRA;V
5771;LEONARD DAHAN;V;;F;LUIS ANTONIO ALVES FERREIRA;V
8215;LEONARD DAHAN;V;;F;LUIS ANTONIO ALVES FERREIRA;V
7900;LEONARD DAHAN;V;;F;LUIS ANTONIO ALVES FERREIRA;V
12158;LEONARD DAHAN;V;;F;LUIS ANTONIO ALVES FERREIRA;V
6965;LEONARD DAHAN;V;;F;LUIS ANTONIO ALVES FERREIRA;V
8077;LEONARD DAHAN;V;;F;LUIS ANTONIO ALVES FERREIRA;V
5675;LEONARD DAHAN;V;;F;ALEXANDRE NATIVIDADE DE SOUZA JUNIOR;V
8067;LEONARD DAHAN;V;;F;ALEXANDRE NATIVIDADE DE SOUZA JUNIOR;V
8347;LEONARD DAHAN;V;;F;ALEXANDRE NATIVIDADE DE SOUZA JUNIOR;V
8025;LEONARD DAHAN;V;;F;ALEXANDRE NATIVIDADE DE SOUZA JUNIOR;V
91558;LEONARD DAHAN;V;;F;ALEXANDRE NATIVIDADE DE SOUZA JUNIOR;V
99752;LEONARD DAHAN;V;;F;ALEXANDRE NATIVIDADE DE SOUZA JUNIOR;V
82792;LEONARD DAHAN;V;;F;ALEXANDRE NATIVIDADE DE SOUZA JUNIOR;V
6461;LEONARD DAHAN;V;;F;ALEXANDRE NATIVIDADE DE SOUZA JUNIOR;V
93968;LEONARD DAHAN;V;;F;ALEXANDRE NATIVIDADE DE SOUZA JUNIOR;V
37178;LEONARD DAHAN;V;;F;ALEXANDRE NATIVIDADE DE SOUZA JUNIOR;V
83610;LEONARD DAHAN;V;;F;ALEXANDRE NATIVIDADE DE SOUZA JUNIOR;V
94715;LEONARD DAHAN;V;;F;ALEXANDRE NATIVIDADE DE SOUZA JUNIOR;V
7346;LEONARD DAHAN;V;;F;ALEXANDRE NATIVIDADE DE SOUZA JUNIOR;V
7348;LEONARD DAHAN;V;;F;ALEXANDRE NATIVIDADE DE SOUZA JUNIOR;V
6463;LEONARD DAHAN;V;;F;ALEXANDRE NATIVIDADE DE SOUZA JUNIOR;V
5769;LEONARD DAHAN;V;;F;ALEXANDRE NATIVIDADE DE SOUZA JUNIOR;V
96149;LEONARD DAHAN;V;;F;ALEXANDRE NATIVIDADE DE SOUZA JUNIOR;V
7746;LEONARD DAHAN;V;;F;ALEXANDRE NATIVIDADE DE SOUZA JUNIOR;V
21572;LEONARD DAHAN;V;;F;ALEXANDRE NATIVIDADE DE SOUZA JUNIOR;V
7745;LEONARD DAHAN;V;;F;ALEXANDRE NATIVIDADE DE SOUZA JUNIOR;V
6387;LEONARD DAHAN;V;;F;ALEXANDRE NATIVIDADE DE SOUZA JUNIOR;V
5672;LEONARD DAHAN;V;;F;ALEXANDRE NATIVIDADE DE SOUZA JUNIOR;V
8021;LEONARD DAHAN;V;;F;ALEXANDRE NATIVIDADE DE SOUZA JUNIOR;V
5763;LEONARD DAHAN;V;;F;ALEXANDRE NATIVIDADE DE SOUZA JUNIOR;V
23481;LEONARD DAHAN;V;;F;ALEXANDRE NATIVIDADE DE SOUZA JUNIOR;V
8070;LEONARD DAHAN;V;;F;ALEXANDRE NATIVIDADE DE SOUZA JUNIOR;V
12589;LEONARD DAHAN;V;;F;ALEXANDRE NATIVIDADE DE SOUZA JUNIOR;V
95935;LEONARD DAHAN;V;;F;ALEXANDRE NATIVIDADE DE SOUZA JUNIOR;V
8079;LEONARD DAHAN;V;;F;ALEXANDRE NATIVIDADE DE SOUZA JUNIOR;V
31811;LEONARD DAHAN;V;;F;ALEXANDRE NATIVIDADE DE SOUZA JUNIOR;V
8191;LEONARD DAHAN;V;;F;PAULO VICTOR DA ROCHA SARLO;V
8218;LEONARD DAHAN;V;;F;PAULO VICTOR DA ROCHA SARLO;V
102202;LEONARD DAHAN;V;;F;PAULO VICTOR DA ROCHA SARLO;V
92682;LEONARD DAHAN;V;;F;PAULO VICTOR DA ROCHA SARLO;V
8190;LEONARD DAHAN;V;;F;PAULO VICTOR DA ROCHA SARLO;V
8204;LEONARD DAHAN;V;;F;PAULO VICTOR DA ROCHA SARLO;V
8072;LEONARD DAHAN;V;;F;PAULO VICTOR DA ROCHA SARLO;V
11683;LEONARD DAHAN;V;;F;PAULO VICTOR DA ROCHA SARLO;V
93823;LEONARD DAHAN;V;;F;PAULO VICTOR DA ROCHA SARLO;V
12088;LEONARD DAHAN;V;;F;PAULO VICTOR DA ROCHA SARLO;V
93826;LEONARD DAHAN;V;;F;PAULO VICTOR DA ROCHA SARLO;V
7475;LEONARD DAHAN;V;;F;PAULO VICTOR DA ROCHA SARLO;V
22438;LEONARD DAHAN;V;;F;PAULO VICTOR DA ROCHA SARLO;V
8132;LEONARD DAHAN;V;;F;PAULO VICTOR DA ROCHA SARLO;V
12581;LEONARD DAHAN;V;;F;PAULO VICTOR DA ROCHA SARLO;V
92683;LEONARD DAHAN;V;;F;PAULO VICTOR DA ROCHA SARLO;V
12161;LEONARD DAHAN;V;;F;PAULO VICTOR DA ROCHA SARLO;V
8137;LEONARD DAHAN;V;;F;PAULO VICTOR DA ROCHA SARLO;V
7485;LEONARD DAHAN;V;;F;PAULO VICTOR DA ROCHA SARLO;V
7486;LEONARD DAHAN;V;;F;PAULO VICTOR DA ROCHA SARLO;V
7963;LEONARD DAHAN;V;;F;PAULO VICTOR DA ROCHA SARLO;V
93752;LEONARD DAHAN;V;;F;PAULO VICTOR DA ROCHA SARLO;V
11924;LEONARD DAHAN;V;;F;PAULO VICTOR DA ROCHA SARLO;V
8197;LEONARD DAHAN;V;;F;PAULO VICTOR DA ROCHA SARLO;V
102201;LEONARD DAHAN;V;;F;PAULO VICTOR DA ROCHA SARLO;V
16662;LEONARD DAHAN;V;;F;ALINE VALENTIM DOS SANTOS;V
96148;LEONARD DAHAN;V;;F;ALINE VALENTIM DOS SANTOS;V
8212;LEONARD DAHAN;V;;F;ALINE VALENTIM DOS SANTOS;V
8213;LEONARD DAHAN;V;;F;ALINE VALENTIM DOS SANTOS;V
8216;LEONARD DAHAN;V;;F;ALINE VALENTIM DOS SANTOS;V
5741;LEONARD DAHAN;V;;F;ALINE VALENTIM DOS SANTOS;V
32045;LEONARD DAHAN;V;;F;ALINE VALENTIM DOS SANTOS;V
7733;LEONARD DAHAN;V;;F;ALINE VALENTIM DOS SANTOS;V
7735;LEONARD DAHAN;V;;F;ALINE VALENTIM DOS SANTOS;V
22361;LEONARD DAHAN;V;;F;ALINE VALENTIM DOS SANTOS;V
7734;LEONARD DAHAN;V;;F;ALINE VALENTIM DOS SANTOS;V
11922;LEONARD DAHAN;V;;F;ALINE VALENTIM DOS SANTOS;V
12165;LEONARD DAHAN;V;;F;ALINE VALENTIM DOS SANTOS;V
7736;LEONARD DAHAN;V;;F;ALINE VALENTIM DOS SANTOS;V
32630;LEONARD DAHAN;V;;F;ALINE VALENTIM DOS SANTOS;V
32063;LEONARD DAHAN;V;;F;ALINE VALENTIM DOS SANTOS;V
7852;LEONARD DAHAN;V;;F;ALINE VALENTIM DOS SANTOS;V
91932;LEONARD DAHAN;V;;F;ALINE VALENTIM DOS SANTOS;V
32053;LEONARD DAHAN;V;;F;ALINE VALENTIM DOS SANTOS;V
7851;LEONARD DAHAN;V;;F;ALINE VALENTIM DOS SANTOS;V
91564;LEONARD DAHAN;V;;F;ALINE VALENTIM DOS SANTOS;V
12162;LEONARD DAHAN;V;;F;ALINE VALENTIM DOS SANTOS;V
17159;LEONARD DAHAN;V;;F;KELLY REGIANE MARTINS GONCALVES;V
91301;LEONARD DAHAN;V;;F;KELLY REGIANE MARTINS GONCALVES;V
20728;LEONARD DAHAN;V;;F;KELLY REGIANE MARTINS GONCALVES;V
6353;LEONARD DAHAN;V;;F;KELLY REGIANE MARTINS GONCALVES;V
7371;LEONARD DAHAN;V;;F;KELLY REGIANE MARTINS GONCALVES;V
7402;LEONARD DAHAN;V;;F;KELLY REGIANE MARTINS GONCALVES;V
92918;LEONARD DAHAN;V;;F;KELLY REGIANE MARTINS GONCALVES;V
7939;LEONARD DAHAN;V;;F;KELLY REGIANE MARTINS GONCALVES;V
7943;LEONARD DAHAN;V;;F;KELLY REGIANE MARTINS GONCALVES;V
7948;LEONARD DAHAN;V;;F;KELLY REGIANE MARTINS GONCALVES;V
90467;LEONARD DAHAN;V;;F;KELLY REGIANE MARTINS GONCALVES;V
7956;LEONARD DAHAN;V;;F;KELLY REGIANE MARTINS GONCALVES;V
7954;LEONARD DAHAN;V;;F;KELLY REGIANE MARTINS GONCALVES;V
8258;LEONARD DAHAN;V;;F;KELLY REGIANE MARTINS GONCALVES;V
7265;LEONARD DAHAN;V;;F;KELLY REGIANE MARTINS GONCALVES;V
6958;LEONARD DAHAN;V;;F;KELLY REGIANE MARTINS GONCALVES;V
91549;LEONARD DAHAN;V;;F;KELLY REGIANE MARTINS GONCALVES;V
79748;LEONARD DAHAN;V;;F;KELLY REGIANE MARTINS GONCALVES;V
92263;LEONARD DAHAN;V;;F;KELLY REGIANE MARTINS GONCALVES;V
22642;LEONARD DAHAN;V;;F;KELLY REGIANE MARTINS GONCALVES;V
8243;LEONARD DAHAN;V;;F;KELLY REGIANE MARTINS GONCALVES;V
102205;LEONARD DAHAN;V;;F;KELLY REGIANE MARTINS GONCALVES;V
7947;LEONARD DAHAN;V;;F;KELLY REGIANE MARTINS GONCALVES;V
21882;LEONARD DAHAN;V;;F;KELLY REGIANE MARTINS GONCALVES;V
11766;GIULIANO NEIVA MELO;V;;F;ANDRE AYRES AURELIANO MARQUES;V
11819;GIULIANO NEIVA MELO;V;;F;ANDRE AYRES AURELIANO MARQUES;V
110782;GIULIANO NEIVA MELO;V;;F;ANDRE AYRES AURELIANO MARQUES;V
11667;GIULIANO NEIVA MELO;V;;F;ANDRE AYRES AURELIANO MARQUES;V
11666;GIULIANO NEIVA MELO;V;;F;ANDRE AYRES AURELIANO MARQUES;V
11658;GIULIANO NEIVA MELO;V;;F;ANDRE AYRES AURELIANO MARQUES;V
11770;GIULIANO NEIVA MELO;V;;F;ANDRE AYRES AURELIANO MARQUES;V
11701;GIULIANO NEIVA MELO;V;;F;ANDRE AYRES AURELIANO MARQUES;V
11765;GIULIANO NEIVA MELO;V;;F;ANDRE AYRES AURELIANO MARQUES;V
11872;GIULIANO NEIVA MELO;V;;F;ANDRE AYRES AURELIANO MARQUES;V
87880;GIULIANO NEIVA MELO;V;;F;ANDRE AYRES AURELIANO MARQUES;V
11649;GIULIANO NEIVA MELO;V;;F;ANDRE AYRES AURELIANO MARQUES;V
101377;GIULIANO NEIVA MELO;V;;F;ANDRE AYRES AURELIANO MARQUES;V
22290;GIULIANO NEIVA MELO;V;;F;ANDRE AYRES AURELIANO MARQUES;V
90202;GIULIANO NEIVA MELO;V;;F;ANDRE AYRES AURELIANO MARQUES;V
94709;GIULIANO NEIVA MELO;V;;F;ANDRE AYRES AURELIANO MARQUES;V
11690;GIULIANO NEIVA MELO;V;;F;ANDRE AYRES AURELIANO MARQUES;V
100562;GIULIANO NEIVA MELO;V;;F;KELLY CRISTINA GOMES;V
110939;GIULIANO NEIVA MELO;V;;F;KELLY CRISTINA GOMES;V
87876;GIULIANO NEIVA MELO;V;;F;KELLY CRISTINA GOMES;V
23414;GIULIANO NEIVA MELO;V;;F;KELLY CRISTINA GOMES;V
100549;GIULIANO NEIVA MELO;V;;F;KELLY CRISTINA GOMES;V
22271;GIULIANO NEIVA MELO;V;;F;KELLY CRISTINA GOMES;V
7203;GIULIANO NEIVA MELO;V;;F;KELLY CRISTINA GOMES;V
82274;GIULIANO NEIVA MELO;V;;F;KELLY CRISTINA GOMES;V
8003;GIULIANO NEIVA MELO;V;;F;KELLY CRISTINA GOMES;V
11859;GIULIANO NEIVA MELO;V;;F;KELLY CRISTINA GOMES;V
7232;GIULIANO NEIVA MELO;V;;F;KELLY CRISTINA GOMES;V
8050;GIULIANO NEIVA MELO;V;;F;KELLY CRISTINA GOMES;V
100566;GIULIANO NEIVA MELO;V;;F;KELLY CRISTINA GOMES;V
87868;GIULIANO NEIVA MELO;V;;F;KELLY CRISTINA GOMES;V
12095;GIULIANO NEIVA MELO;V;;F;KELLY CRISTINA GOMES;V
92469;GIULIANO NEIVA MELO;V;;F;KELLY CRISTINA GOMES;V
7199;GIULIANO NEIVA MELO;V;;F;KELLY CRISTINA GOMES;V
7204;GIULIANO NEIVA MELO;V;;F;KELLY CRISTINA GOMES;V
89897;GIULIANO NEIVA MELO;V;;F;KELLY CRISTINA GOMES;V
8038;GIULIANO NEIVA MELO;V;;F;KELLY CRISTINA GOMES;V
11865;GIULIANO NEIVA MELO;V;;F;KELLY CRISTINA GOMES;V
100569;GIULIANO NEIVA MELO;V;;F;KELLY CRISTINA GOMES;V
8041;GIULIANO NEIVA MELO;V;;F;KELLY CRISTINA GOMES;V
8013;GIULIANO NEIVA MELO;V;;F;KELLY CRISTINA GOMES;V
17202;GIULIANO NEIVA MELO;V;;F;KELLY CRISTINA GOMES;V
8007;GIULIANO NEIVA MELO;V;;F;KELLY CRISTINA GOMES;V
7997;GIULIANO NEIVA MELO;V;;F;KELLY CRISTINA GOMES;V
96125;GIULIANO NEIVA MELO;V;;F;KELLY CRISTINA GOMES;V
94907;GIULIANO NEIVA MELO;V;;F;KELLY CRISTINA GOMES;V
95145;GIULIANO NEIVA MELO;V;;F;KELLY CRISTINA GOMES;V
32131;GIULIANO NEIVA MELO;V;;F;KELLY CRISTINA GOMES;V
8014;GIULIANO NEIVA MELO;V;;F;KELLY CRISTINA GOMES;V
22786;GIULIANO NEIVA MELO;V;;F;SERGIO HENRIQUE ASSIS DE SOUZA;V
22526;GIULIANO NEIVA MELO;V;;F;SERGIO HENRIQUE ASSIS DE SOUZA;V
99198;GIULIANO NEIVA MELO;V;;F;SERGIO HENRIQUE ASSIS DE SOUZA;V
32712;GIULIANO NEIVA MELO;V;;F;SERGIO HENRIQUE ASSIS DE SOUZA;V
22441;GIULIANO NEIVA MELO;V;;F;SERGIO HENRIQUE ASSIS DE SOUZA;V
22453;GIULIANO NEIVA MELO;V;;F;SERGIO HENRIQUE ASSIS DE SOUZA;V
96065;GIULIANO NEIVA MELO;V;;F;SERGIO HENRIQUE ASSIS DE SOUZA;V
22455;GIULIANO NEIVA MELO;V;;F;SERGIO HENRIQUE ASSIS DE SOUZA;V
22454;GIULIANO NEIVA MELO;V;;F;SERGIO HENRIQUE ASSIS DE SOUZA;V
22463;GIULIANO NEIVA MELO;V;;F;SERGIO HENRIQUE ASSIS DE SOUZA;V
15970;GIULIANO NEIVA MELO;V;;F;SERGIO HENRIQUE ASSIS DE SOUZA;V
89777;GIULIANO NEIVA MELO;V;;F;SERGIO HENRIQUE ASSIS DE SOUZA;V
22512;GIULIANO NEIVA MELO;V;;F;SERGIO HENRIQUE ASSIS DE SOUZA;V
22508;GIULIANO NEIVA MELO;V;;F;SERGIO HENRIQUE ASSIS DE SOUZA;V
22460;GIULIANO NEIVA MELO;V;;F;SERGIO HENRIQUE ASSIS DE SOUZA;V
41595;GIULIANO NEIVA MELO;V;;F;SERGIO HENRIQUE ASSIS DE SOUZA;V
92209;GIULIANO NEIVA MELO;V;;F;SERGIO HENRIQUE ASSIS DE SOUZA;V
25675;GIULIANO NEIVA MELO;V;;F;SERGIO HENRIQUE ASSIS DE SOUZA;V
22465;GIULIANO NEIVA MELO;V;;F;SERGIO HENRIQUE ASSIS DE SOUZA;V
22507;GIULIANO NEIVA MELO;V;;F;SERGIO HENRIQUE ASSIS DE SOUZA;V
22499;GIULIANO NEIVA MELO;V;;F;SERGIO HENRIQUE ASSIS DE SOUZA;V
22516;GIULIANO NEIVA MELO;V;;F;SERGIO HENRIQUE ASSIS DE SOUZA;V
22517;GIULIANO NEIVA MELO;V;;F;SERGIO HENRIQUE ASSIS DE SOUZA;V
99177;GIULIANO NEIVA MELO;V;;F;SERGIO HENRIQUE ASSIS DE SOUZA;V
92759;GIULIANO NEIVA MELO;V;;F;SERGIO HENRIQUE ASSIS DE SOUZA;V
22442;GIULIANO NEIVA MELO;V;;F;SERGIO HENRIQUE ASSIS DE SOUZA;V
22452;GIULIANO NEIVA MELO;V;;F;SERGIO HENRIQUE ASSIS DE SOUZA;V
15509;GIULIANO NEIVA MELO;V;;F;SERGIO HENRIQUE ASSIS DE SOUZA;V
22449;GIULIANO NEIVA MELO;V;;F;SERGIO HENRIQUE ASSIS DE SOUZA;V
22577;GIULIANO NEIVA MELO;V;;F;SERGIO HENRIQUE ASSIS DE SOUZA;V
92764;GIULIANO NEIVA MELO;V;;F;SERGIO HENRIQUE ASSIS DE SOUZA;V
22513;GIULIANO NEIVA MELO;V;;F;SERGIO HENRIQUE ASSIS DE SOUZA;V
92758;GIULIANO NEIVA MELO;V;;F;SERGIO HENRIQUE ASSIS DE SOUZA;V
11762;GIULIANO NEIVA MELO;V;;F;PEDRO VITOR SILVA BERNARDES;V
110781;GIULIANO NEIVA MELO;V;;F;PEDRO VITOR SILVA BERNARDES;V
11706;GIULIANO NEIVA MELO;V;;F;PEDRO VITOR SILVA BERNARDES;V
11821;GIULIANO NEIVA MELO;V;;F;PEDRO VITOR SILVA BERNARDES;V
11838;GIULIANO NEIVA MELO;V;;F;PEDRO VITOR SILVA BERNARDES;V
11822;GIULIANO NEIVA MELO;V;;F;PEDRO VITOR SILVA BERNARDES;V
11789;GIULIANO NEIVA MELO;V;;F;PEDRO VITOR SILVA BERNARDES;V
92902;GIULIANO NEIVA MELO;V;;F;PEDRO VITOR SILVA BERNARDES;V
17149;GIULIANO NEIVA MELO;V;;F;PEDRO VITOR SILVA BERNARDES;V
11575;ALUISIO ANDRADE DA SILVA JUNIOR;V;;F;LADISLAU BRUNO GOMES MARTINS DOS REIS;V
5682;ALUISIO ANDRADE DA SILVA JUNIOR;V;;F;LADISLAU BRUNO GOMES MARTINS DOS REIS;V
12450;ALUISIO ANDRADE DA SILVA JUNIOR;V;;F;LADISLAU BRUNO GOMES MARTINS DOS REIS;V
22423;ALUISIO ANDRADE DA SILVA JUNIOR;V;;F;LADISLAU BRUNO GOMES MARTINS DOS REIS;V
5681;ALUISIO ANDRADE DA SILVA JUNIOR;V;;F;LADISLAU BRUNO GOMES MARTINS DOS REIS;V
6280;ALUISIO ANDRADE DA SILVA JUNIOR;V;;F;LADISLAU BRUNO GOMES MARTINS DOS REIS;V
7946;ALUISIO ANDRADE DA SILVA JUNIOR;V;;F;LADISLAU BRUNO GOMES MARTINS DOS REIS;V
6278;ALUISIO ANDRADE DA SILVA JUNIOR;V;;F;LADISLAU BRUNO GOMES MARTINS DOS REIS;V
7394;ALUISIO ANDRADE DA SILVA JUNIOR;V;;F;LADISLAU BRUNO GOMES MARTINS DOS REIS;V
5677;ALUISIO ANDRADE DA SILVA JUNIOR;V;;F;LADISLAU BRUNO GOMES MARTINS DOS REIS;V
6276;ALUISIO ANDRADE DA SILVA JUNIOR;V;;F;LADISLAU BRUNO GOMES MARTINS DOS REIS;V
5688;ALUISIO ANDRADE DA SILVA JUNIOR;V;;F;LADISLAU BRUNO GOMES MARTINS DOS REIS;V
90548;ALUISIO ANDRADE DA SILVA JUNIOR;V;;F;LADISLAU BRUNO GOMES MARTINS DOS REIS;V
39781;ALUISIO ANDRADE DA SILVA JUNIOR;V;;F;LADISLAU BRUNO GOMES MARTINS DOS REIS;V
110537;ALUISIO ANDRADE DA SILVA JUNIOR;V;;F;LADISLAU BRUNO GOMES MARTINS DOS REIS;V
5983;ALUISIO ANDRADE DA SILVA JUNIOR;V;;F;JUCEUGO ALVES SANTANA;V
7001;ALUISIO ANDRADE DA SILVA JUNIOR;V;;F;JUCEUGO ALVES SANTANA;V
12468;ALUISIO ANDRADE DA SILVA JUNIOR;V;;F;JUCEUGO ALVES SANTANA;V
6814;ALUISIO ANDRADE DA SILVA JUNIOR;V;;F;JUCEUGO ALVES SANTANA;V
8349;ALUISIO ANDRADE DA SILVA JUNIOR;V;;F;JUCEUGO ALVES SANTANA;V
8123;ALUISIO ANDRADE DA SILVA JUNIOR;V;;F;JUCEUGO ALVES SANTANA;V
95370;ALUISIO ANDRADE DA SILVA JUNIOR;V;;F;JUCEUGO ALVES SANTANA;V
6021;ALUISIO ANDRADE DA SILVA JUNIOR;V;;F;JUCEUGO ALVES SANTANA;V
6030;ALUISIO ANDRADE DA SILVA JUNIOR;V;;F;JUCEUGO ALVES SANTANA;V
6018;ALUISIO ANDRADE DA SILVA JUNIOR;V;;F;JUCEUGO ALVES SANTANA;V
94722;ALUISIO ANDRADE DA SILVA JUNIOR;V;;F;JUCEUGO ALVES SANTANA;V
95372;ALUISIO ANDRADE DA SILVA JUNIOR;V;;F;JUCEUGO ALVES SANTANA;V
5984;ALUISIO ANDRADE DA SILVA JUNIOR;V;;F;JUCEUGO ALVES SANTANA;V
6020;ALUISIO ANDRADE DA SILVA JUNIOR;V;;F;JUCEUGO ALVES SANTANA;V
102167;ALUISIO ANDRADE DA SILVA JUNIOR;V;;F;JUCEUGO ALVES SANTANA;V
96087;ALUISIO ANDRADE DA SILVA JUNIOR;V;;F;JUCEUGO ALVES SANTANA;V
8120;ALUISIO ANDRADE DA SILVA JUNIOR;V;;F;JUCEUGO ALVES SANTANA;V
6015;ALUISIO ANDRADE DA SILVA JUNIOR;V;;F;JUCEUGO ALVES SANTANA;V
6016;ALUISIO ANDRADE DA SILVA JUNIOR;V;;F;JUCEUGO ALVES SANTANA;V
90196;ALUISIO ANDRADE DA SILVA JUNIOR;V;;F;JUCEUGO ALVES SANTANA;V
12482;ALUISIO ANDRADE DA SILVA JUNIOR;V;;F;ANTONIO MARTINS DA SILVA BERGAMASCO;V
8298;ALUISIO ANDRADE DA SILVA JUNIOR;V;;F;ANTONIO MARTINS DA SILVA BERGAMASCO;V
7012;ALUISIO ANDRADE DA SILVA JUNIOR;V;;F;ANTONIO MARTINS DA SILVA BERGAMASCO;V
11958;ALUISIO ANDRADE DA SILVA JUNIOR;V;;F;ANTONIO MARTINS DA SILVA BERGAMASCO;V
91970;ALUISIO ANDRADE DA SILVA JUNIOR;V;;F;ANTONIO MARTINS DA SILVA BERGAMASCO;V
94228;ALUISIO ANDRADE DA SILVA JUNIOR;V;;F;ANTONIO MARTINS DA SILVA BERGAMASCO;V
91481;ALUISIO ANDRADE DA SILVA JUNIOR;V;;F;ANTONIO MARTINS DA SILVA BERGAMASCO;V
91975;ALUISIO ANDRADE DA SILVA JUNIOR;V;;F;ANTONIO MARTINS DA SILVA BERGAMASCO;V
91979;ALUISIO ANDRADE DA SILVA JUNIOR;V;;F;ANTONIO MARTINS DA SILVA BERGAMASCO;V
7282;ALUISIO ANDRADE DA SILVA JUNIOR;V;;F;ANTONIO MARTINS DA SILVA BERGAMASCO;V
11481;ALUISIO ANDRADE DA SILVA JUNIOR;V;;F;ANTONIO MARTINS DA SILVA BERGAMASCO;V
5995;ALUISIO ANDRADE DA SILVA JUNIOR;V;;F;ANTONIO MARTINS DA SILVA BERGAMASCO;V
12057;ALUISIO ANDRADE DA SILVA JUNIOR;V;;F;ANTONIO MARTINS DA SILVA BERGAMASCO;V
12485;ALUISIO ANDRADE DA SILVA JUNIOR;V;;F;ANTONIO MARTINS DA SILVA BERGAMASCO;V
7606;ALUISIO ANDRADE DA SILVA JUNIOR;V;;F;ANTONIO MARTINS DA SILVA BERGAMASCO;V
7590;ALUISIO ANDRADE DA SILVA JUNIOR;V;;F;ANTONIO MARTINS DA SILVA BERGAMASCO;V
5657;ALUISIO ANDRADE DA SILVA JUNIOR;V;;F;ANTONIO MARTINS DA SILVA BERGAMASCO;V
8333;ALUISIO ANDRADE DA SILVA JUNIOR;V;;F;ANTONIO MARTINS DA SILVA BERGAMASCO;V
7455;ALUISIO ANDRADE DA SILVA JUNIOR;V;;F;ANTONIO MARTINS DA SILVA BERGAMASCO;V
13707;ALUISIO ANDRADE DA SILVA JUNIOR;V;;F;ANTONIO MARTINS DA SILVA BERGAMASCO;V
7607;ALUISIO ANDRADE DA SILVA JUNIOR;V;;F;ANTONIO MARTINS DA SILVA BERGAMASCO;V
102337;ALUISIO ANDRADE DA SILVA JUNIOR;V;;F;ANTONIO MARTINS DA SILVA BERGAMASCO;V
12310;ALUISIO ANDRADE DA SILVA JUNIOR;V;;F;ANTONIO MARTINS DA SILVA BERGAMASCO;V
7608;ALUISIO ANDRADE DA SILVA JUNIOR;V;;F;ANTONIO MARTINS DA SILVA BERGAMASCO;V
6823;ALUISIO ANDRADE DA SILVA JUNIOR;V;;F;ANTONIO MARTINS DA SILVA BERGAMASCO;V
88713;ALUISIO ANDRADE DA SILVA JUNIOR;V;;F;ANTONIO MARTINS DA SILVA BERGAMASCO;V
90199;ALUISIO ANDRADE DA SILVA JUNIOR;V;;F;ANTONIO MARTINS DA SILVA BERGAMASCO;V
7584;ALUISIO ANDRADE DA SILVA JUNIOR;V;;F;MARCOS EDUARDO GOUVEIA DE SALLES;V
7448;ALUISIO ANDRADE DA SILVA JUNIOR;V;;F;MARCOS EDUARDO GOUVEIA DE SALLES;V
7450;ALUISIO ANDRADE DA SILVA JUNIOR;V;;F;MARCOS EDUARDO GOUVEIA DE SALLES;V
94123;ALUISIO ANDRADE DA SILVA JUNIOR;V;;F;MARCOS EDUARDO GOUVEIA DE SALLES;V
6881;ALUISIO ANDRADE DA SILVA JUNIOR;V;;F;MARCOS EDUARDO GOUVEIA DE SALLES;V
44992;ALUISIO ANDRADE DA SILVA JUNIOR;V;;F;MARCOS EDUARDO GOUVEIA DE SALLES;V
100392;ALUISIO ANDRADE DA SILVA JUNIOR;V;;F;MARCOS EDUARDO GOUVEIA DE SALLES;V
92169;ALUISIO ANDRADE DA SILVA JUNIOR;V;;F;MARCOS EDUARDO GOUVEIA DE SALLES;V
7471;ALUISIO ANDRADE DA SILVA JUNIOR;V;;F;MARCOS EDUARDO GOUVEIA DE SALLES;V
17226;ALUISIO ANDRADE DA SILVA JUNIOR;V;;F;MARCOS EDUARDO GOUVEIA DE SALLES;V
7460;ALUISIO ANDRADE DA SILVA JUNIOR;V;;F;MARCOS EDUARDO GOUVEIA DE SALLES;V
7449;ALUISIO ANDRADE DA SILVA JUNIOR;V;;F;MARCOS EDUARDO GOUVEIA DE SALLES;V
84889;ALUISIO ANDRADE DA SILVA JUNIOR;V;;F;MARCOS EDUARDO GOUVEIA DE SALLES;V
32116;ALUISIO ANDRADE DA SILVA JUNIOR;V;;F;MARCOS EDUARDO GOUVEIA DE SALLES;V
7037;ALUISIO ANDRADE DA SILVA JUNIOR;V;;F;MARCOS EDUARDO GOUVEIA DE SALLES;V
6608;ALUISIO ANDRADE DA SILVA JUNIOR;V;;F;MARCOS EDUARDO GOUVEIA DE SALLES;V
6703;ALUISIO ANDRADE DA SILVA JUNIOR;V;;F;MARCOS EDUARDO GOUVEIA DE SALLES;V
101296;ALUISIO ANDRADE DA SILVA JUNIOR;V;;F;MARCOS EDUARDO GOUVEIA DE SALLES;V
23364;ALUISIO ANDRADE DA SILVA JUNIOR;V;;F;MARCOS EDUARDO GOUVEIA DE SALLES;V
97771;ALUISIO ANDRADE DA SILVA JUNIOR;V;;F;MARCOS EDUARDO GOUVEIA DE SALLES;V
6880;ALUISIO ANDRADE DA SILVA JUNIOR;V;;F;MARCOS EDUARDO GOUVEIA DE SALLES;V
102074;ALUISIO ANDRADE DA SILVA JUNIOR;V;;F;MARCOS EDUARDO GOUVEIA DE SALLES;V
102168;ALUISIO ANDRADE DA SILVA JUNIOR;V;;F;MARCOS EDUARDO GOUVEIA DE SALLES;V
113868;ALUISIO ANDRADE DA SILVA JUNIOR;V;;F;MARCOS EDUARDO GOUVEIA DE SALLES;V
7464;ALUISIO ANDRADE DA SILVA JUNIOR;V;;F;MARCOS EDUARDO GOUVEIA DE SALLES;V
8100;ALUISIO ANDRADE DA SILVA JUNIOR;V;;F;MARCOS EDUARDO GOUVEIA DE SALLES;V
87869;ALUISIO ANDRADE DA SILVA JUNIOR;V;;F;MARCOS EDUARDO GOUVEIA DE SALLES;V
114270;ALUISIO ANDRADE DA SILVA JUNIOR;V;;F;MARCOS EDUARDO GOUVEIA DE SALLES;V
7099;ALUISIO ANDRADE DA SILVA JUNIOR;V;;F;RENATA DE PAULA AZEREDO;V
7918;ALUISIO ANDRADE DA SILVA JUNIOR;V;;F;RENATA DE PAULA AZEREDO;V
12283;ALUISIO ANDRADE DA SILVA JUNIOR;V;;F;RENATA DE PAULA AZEREDO;V
93766;ALUISIO ANDRADE DA SILVA JUNIOR;V;;F;RENATA DE PAULA AZEREDO;V
98305;ALUISIO ANDRADE DA SILVA JUNIOR;V;;F;RENATA DE PAULA AZEREDO;V
92929;ALUISIO ANDRADE DA SILVA JUNIOR;V;;F;RENATA DE PAULA AZEREDO;V
12089;ALUISIO ANDRADE DA SILVA JUNIOR;V;;F;RENATA DE PAULA AZEREDO;V
7916;ALUISIO ANDRADE DA SILVA JUNIOR;V;;F;RENATA DE PAULA AZEREDO;V
6077;ALUISIO ANDRADE DA SILVA JUNIOR;V;;F;RENATA DE PAULA AZEREDO;V
95735;ALUISIO ANDRADE DA SILVA JUNIOR;V;;F;RENATA DE PAULA AZEREDO;V
89960;ALUISIO ANDRADE DA SILVA JUNIOR;V;;F;RENATA DE PAULA AZEREDO;V
7553;ALUISIO ANDRADE DA SILVA JUNIOR;V;;F;RENATA DE PAULA AZEREDO;V
7914;ALUISIO ANDRADE DA SILVA JUNIOR;V;;F;RENATA DE PAULA AZEREDO;V
5720;ALUISIO ANDRADE DA SILVA JUNIOR;V;;F;RENATA DE PAULA AZEREDO;V
7919;ALUISIO ANDRADE DA SILVA JUNIOR;V;;F;RENATA DE PAULA AZEREDO;V
5718;ALUISIO ANDRADE DA SILVA JUNIOR;V;;F;RENATA DE PAULA AZEREDO;V
5722;ALUISIO ANDRADE DA SILVA JUNIOR;V;;F;RENATA DE PAULA AZEREDO;V
89768;ALUISIO ANDRADE DA SILVA JUNIOR;V;;F;RENATA DE PAULA AZEREDO;V
12396;ALUISIO ANDRADE DA SILVA JUNIOR;V;;F;RENATA DE PAULA AZEREDO;V
7912;ALUISIO ANDRADE DA SILVA JUNIOR;V;;F;RENATA DE PAULA AZEREDO;V
7913;ALUISIO ANDRADE DA SILVA JUNIOR;V;;F;RENATA DE PAULA AZEREDO;V
5704;ALUISIO ANDRADE DA SILVA JUNIOR;V;;F;RENATA DE PAULA AZEREDO;V
5699;ALUISIO ANDRADE DA SILVA JUNIOR;V;;F;RENATA DE PAULA AZEREDO;V
12751;ALUISIO ANDRADE DA SILVA JUNIOR;V;;F;RENATA DE PAULA AZEREDO;V
8292;ANDERSON ARAUJO;V;;F;ALESSANDRO DA SILVA PORTELLA;V
102191;ANDERSON ARAUJO;V;;F;ALESSANDRO DA SILVA PORTELLA;V
8340;ANDERSON ARAUJO;V;;F;ALESSANDRO DA SILVA PORTELLA;V
44828;ANDERSON ARAUJO;V;;F;ALESSANDRO DA SILVA PORTELLA;V
5967;ANDERSON ARAUJO;V;;F;ALESSANDRO DA SILVA PORTELLA;V
8385;ANDERSON ARAUJO;V;;F;ALESSANDRO DA SILVA PORTELLA;V
105110;ANDERSON ARAUJO;V;;F;ALESSANDRO DA SILVA PORTELLA;V
5968;ANDERSON ARAUJO;V;;F;ALESSANDRO DA SILVA PORTELLA;V
96055;ANDERSON ARAUJO;V;;F;ALESSANDRO DA SILVA PORTELLA;V
57161;ANDERSON ARAUJO;V;;F;ALESSANDRO DA SILVA PORTELLA;V
5753;ANDERSON ARAUJO;V;;F;ALINE REGINA VILHA DOS SANTOS;V
5955;ANDERSON ARAUJO;V;;F;ALINE REGINA VILHA DOS SANTOS;V
96192;ANDERSON ARAUJO;V;;F;ALINE REGINA VILHA DOS SANTOS;V
7582;ANDERSON ARAUJO;V;;F;ALINE REGINA VILHA DOS SANTOS;V
7908;ANDERSON ARAUJO;V;;F;ALINE REGINA VILHA DOS SANTOS;V
44591;ANDERSON ARAUJO;V;;F;ALINE REGINA VILHA DOS SANTOS;V
7836;ANDERSON ARAUJO;V;;F;ALINE REGINA VILHA DOS SANTOS;V
44695;ANDERSON ARAUJO;V;;F;ALINE REGINA VILHA DOS SANTOS;V
109179;ANDERSON ARAUJO;V;;F;ALINE REGINA VILHA DOS SANTOS;V
7838;ANDERSON ARAUJO;V;;F;ALINE REGINA VILHA DOS SANTOS;V
94280;ANDERSON ARAUJO;V;;F;ALINE REGINA VILHA DOS SANTOS;V
40950;ANDERSON ARAUJO;V;;F;ALINE REGINA VILHA DOS SANTOS;V
5806;ANDERSON ARAUJO;V;;F;ALINE REGINA VILHA DOS SANTOS;V
7749;ANDERSON ARAUJO;V;;F;ALINE REGINA VILHA DOS SANTOS;V
84280;ANDERSON ARAUJO;V;;F;ALINE REGINA VILHA DOS SANTOS;V
89835;ANDERSON ARAUJO;V;;F;ALINE REGINA VILHA DOS SANTOS;V
7750;ANDERSON ARAUJO;V;;F;ALINE REGINA VILHA DOS SANTOS;V
7527;ANDERSON ARAUJO;V;;F;JOSE NATAL DE OLIVEIRA;V
7541;ANDERSON ARAUJO;V;;F;JOSE NATAL DE OLIVEIRA;V
7540;ANDERSON ARAUJO;V;;F;JOSE NATAL DE OLIVEIRA;V
7591;ANDERSON ARAUJO;V;;F;JOSE NATAL DE OLIVEIRA;V
104695;ANDERSON ARAUJO;V;;F;JOSE NATAL DE OLIVEIRA;V
8398;ANDERSON ARAUJO;V;;F;JOSE NATAL DE OLIVEIRA;V
102204;ANDERSON ARAUJO;V;;F;JOSE NATAL DE OLIVEIRA;V
11547;ANDERSON ARAUJO;V;;F;JOSE NATAL DE OLIVEIRA;V
99944;ANDERSON ARAUJO;V;;F;JOSE NATAL DE OLIVEIRA;V
7748;ANDERSON ARAUJO;V;;F;QUELLEN CARINI ABECH TABOSA;V
7909;ANDERSON ARAUJO;V;;F;QUELLEN CARINI ABECH TABOSA;V
7771;ANDERSON ARAUJO;V;;F;QUELLEN CARINI ABECH TABOSA;V
107814;ANDERSON ARAUJO;V;;F;QUELLEN CARINI ABECH TABOSA;V
6511;ANDERSON ARAUJO;V;;F;QUELLEN CARINI ABECH TABOSA;V
5779;ANDERSON ARAUJO;V;;F;QUELLEN CARINI ABECH TABOSA;V
22776;ANDERSON ARAUJO;V;;F;ARMIN SCHURT JUNIOR;V
22591;ANDERSON ARAUJO;V;;F;ARMIN SCHURT JUNIOR;V
22596;ANDERSON ARAUJO;V;;F;ARMIN SCHURT JUNIOR;V
22608;ANDERSON ARAUJO;V;;F;ARMIN SCHURT JUNIOR;V
94710;ANDERSON ARAUJO;V;;F;ARMIN SCHURT JUNIOR;V
22606;ANDERSON ARAUJO;V;;F;ARMIN SCHURT JUNIOR;V
44693;ANDERSON ARAUJO;V;;F;ARMIN SCHURT JUNIOR;V
22740;ANDERSON ARAUJO;V;;F;ARMIN SCHURT JUNIOR;V
22742;ANDERSON ARAUJO;V;;F;ARMIN SCHURT JUNIOR;V
12254;ANDERSON ARAUJO;V;;F;ARMIN SCHURT JUNIOR;V
14136;ANDERSON ARAUJO;V;;F;ARMIN SCHURT JUNIOR;V
103821;ANDERSON ARAUJO;V;;F;ARMIN SCHURT JUNIOR;V
5792;ANDERSON ARAUJO;V;;F;DAIANE PRATES GEHLEN;V
5889;ANDERSON ARAUJO;V;;F;DAIANE PRATES GEHLEN;V
5795;ANDERSON ARAUJO;V;;F;DAIANE PRATES GEHLEN;V
7067;ANDERSON ARAUJO;V;;F;DAIANE PRATES GEHLEN;V
5798;ANDERSON ARAUJO;V;;F;DAIANE PRATES GEHLEN;V
11929;ANDERSON ARAUJO;V;;F;DAIANE PRATES GEHLEN;V
20726;ANDERSON ARAUJO;V;;F;DAIANE PRATES GEHLEN;V
44827;ANDERSON ARAUJO;V;;F;DAIANE PRATES GEHLEN;V
110362;ANDERSON ARAUJO;V;;F;DAIANE PRATES GEHLEN;V
5935;ANDERSON ARAUJO;V;;F;DAIANE PRATES GEHLEN;V
5930;ANDERSON ARAUJO;V;;F;RAFAELLA TESSUTO FEIER;V
5982;ANDERSON ARAUJO;V;;F;RAFAELLA TESSUTO FEIER;V
6080;ANDERSON ARAUJO;V;;F;RAFAELLA TESSUTO FEIER;V
95880;ANDERSON ARAUJO;V;;F;RAFAELLA TESSUTO FEIER;V
12225;ANDERSON ARAUJO;V;;F;RAFAELLA TESSUTO FEIER;V
8327;ANDERSON ARAUJO;V;;F;RAFAELLA TESSUTO FEIER;V
5969;ANDERSON ARAUJO;V;;F;RAFAELLA TESSUTO FEIER;V
83009;ANDERSON ARAUJO;V;;F;RAFAELLA TESSUTO FEIER;V
7016;ANDERSON ARAUJO;V;;F;RAFAELLA TESSUTO FEIER;V
83011;ANDERSON ARAUJO;V;;F;RAFAELLA TESSUTO FEIER;V
96339;ANDERSON ARAUJO;V;;F;RAFAELLA TESSUTO FEIER;V
102028;ANDERSON ARAUJO;V;;F;RAFAELLA TESSUTO FEIER;V
5970;ANDERSON ARAUJO;V;;F;RAFAELLA TESSUTO FEIER;V
91827;ANDERSON ARAUJO;V;;F;RAFAELLA TESSUTO FEIER;V
6079;ANDERSON ARAUJO;V;;F;RAFAELLA TESSUTO FEIER;V
8455;ANDERSON ARAUJO;V;;F;RAFAELLA TESSUTO FEIER;V
15896;ANDERSON ARAUJO;V;;F;RAFAELLA TESSUTO FEIER;V
23084;ANDERSON ARAUJO;V;;F;RAFAELLA TESSUTO FEIER;V
23086;ANDERSON ARAUJO;V;;F;RAFAELLA TESSUTO FEIER;V
45338;ANDERSON ARAUJO;V;;F;RAFAELLA TESSUTO FEIER;V
5616;ANDERSON ARAUJO;V;;F;RAFAELLA TESSUTO FEIER;V
44830;ANDERSON ARAUJO;V;;F;RAFAELLA TESSUTO FEIER;V
6082;ANDERSON ARAUJO;V;;F;RAFAELLA TESSUTO FEIER;V
6081;ANDERSON ARAUJO;V;;F;RAFAELLA TESSUTO FEIER;V
92083;RALPH BLANKE GOTARDI;V;;F;WANDERLEY SANTIAGO DE ABREU;V
91444;RALPH BLANKE GOTARDI;V;;F;WANDERLEY SANTIAGO DE ABREU;V
5867;RALPH BLANKE GOTARDI;V;;F;WANDERLEY SANTIAGO DE ABREU;V
91277;RALPH BLANKE GOTARDI;V;;F;WANDERLEY SANTIAGO DE ABREU;V
5870;RALPH BLANKE GOTARDI;V;;F;WANDERLEY SANTIAGO DE ABREU;V
97856;RALPH BLANKE GOTARDI;V;;F;WANDERLEY SANTIAGO DE ABREU;V
95399;RALPH BLANKE GOTARDI;V;;F;WANDERLEY SANTIAGO DE ABREU;V
94752;RALPH BLANKE GOTARDI;V;;F;WANDERLEY SANTIAGO DE ABREU;V
95226;RALPH BLANKE GOTARDI;V;;F;WANDERLEY SANTIAGO DE ABREU;V
94755;RALPH BLANKE GOTARDI;V;;F;WANDERLEY SANTIAGO DE ABREU;V
95422;RALPH BLANKE GOTARDI;V;;F;WANDERLEY SANTIAGO DE ABREU;V
15746;RALPH BLANKE GOTARDI;V;;F;WANDERLEY SANTIAGO DE ABREU;V
102065;RALPH BLANKE GOTARDI;V;;F;WANDERLEY SANTIAGO DE ABREU;V
110551;RALPH BLANKE GOTARDI;V;;F;WANDERLEY SANTIAGO DE ABREU;V
94737;RALPH BLANKE GOTARDI;V;;F;WANDERLEY SANTIAGO DE ABREU;V
94738;RALPH BLANKE GOTARDI;V;;F;WANDERLEY SANTIAGO DE ABREU;V
95395;RALPH BLANKE GOTARDI;V;;F;WANDERLEY SANTIAGO DE ABREU;V
95394;RALPH BLANKE GOTARDI;V;;F;WANDERLEY SANTIAGO DE ABREU;V
94739;RALPH BLANKE GOTARDI;V;;F;WANDERLEY SANTIAGO DE ABREU;V
110540;RALPH BLANKE GOTARDI;V;;F;WANDERLEY SANTIAGO DE ABREU;V
5884;RALPH BLANKE GOTARDI;V;;F;WANDERLEY SANTIAGO DE ABREU;V
8421;RALPH BLANKE GOTARDI;V;;F;WANDERLEY SANTIAGO DE ABREU;V
8432;RALPH BLANKE GOTARDI;V;;F;WANDERLEY SANTIAGO DE ABREU;V
91094;RALPH BLANKE GOTARDI;V;;F;WANDERLEY SANTIAGO DE ABREU;V
6400;RALPH BLANKE GOTARDI;V;;F;WANDERLEY SANTIAGO DE ABREU;V
7848;RALPH BLANKE GOTARDI;V;;F;WANDERLEY SANTIAGO DE ABREU;V
5862;RALPH BLANKE GOTARDI;V;;F;WANDERLEY SANTIAGO DE ABREU;V
5864;RALPH BLANKE GOTARDI;V;;F;WANDERLEY SANTIAGO DE ABREU;V
5869;RALPH BLANKE GOTARDI;V;;F;WANDERLEY SANTIAGO DE ABREU;V
5860;RALPH BLANKE GOTARDI;V;;F;WANDERLEY SANTIAGO DE ABREU;V
91593;RALPH BLANKE GOTARDI;V;;F;WANDERLEY SANTIAGO DE ABREU;V
5865;RALPH BLANKE GOTARDI;V;;F;WANDERLEY SANTIAGO DE ABREU;V
97586;RALPH BLANKE GOTARDI;V;;F;ISABELLE ROCHA MODESTO;V
97735;RALPH BLANKE GOTARDI;V;;F;ISABELLE ROCHA MODESTO;V
97745;RALPH BLANKE GOTARDI;V;;F;ISABELLE ROCHA MODESTO;V
97703;RALPH BLANKE GOTARDI;V;;F;ISABELLE ROCHA MODESTO;V
97587;RALPH BLANKE GOTARDI;V;;F;ISABELLE ROCHA MODESTO;V
97725;RALPH BLANKE GOTARDI;V;;F;ISABELLE ROCHA MODESTO;V
98590;RALPH BLANKE GOTARDI;V;;F;ISABELLE ROCHA MODESTO;V
108886;RALPH BLANKE GOTARDI;V;;F;ISABELLE ROCHA MODESTO;V
7846;RALPH BLANKE GOTARDI;V;;F;ISABELLE ROCHA MODESTO;V
7842;RALPH BLANKE GOTARDI;V;;F;ISABELLE ROCHA MODESTO;V
7858;RALPH BLANKE GOTARDI;V;;F;ISABELLE ROCHA MODESTO;V
101517;RALPH BLANKE GOTARDI;V;;F;ISABELLE ROCHA MODESTO;V
97799;RALPH BLANKE GOTARDI;V;;F;ISABELLE ROCHA MODESTO;V
97800;RALPH BLANKE GOTARDI;V;;F;ISABELLE ROCHA MODESTO;V
97704;RALPH BLANKE GOTARDI;V;;F;ISABELLE ROCHA MODESTO;V
7847;RALPH BLANKE GOTARDI;V;;F;ISABELLE ROCHA MODESTO;V
7861;RALPH BLANKE GOTARDI;V;;F;ISABELLE ROCHA MODESTO;V
7859;RALPH BLANKE GOTARDI;V;;F;ISABELLE ROCHA MODESTO;V
100313;RALPH BLANKE GOTARDI;V;;F;ISABELLE ROCHA MODESTO;V
100724;RALPH BLANKE GOTARDI;V;;F;ISABELLE ROCHA MODESTO;V
102053;RALPH BLANKE GOTARDI;V;;F;ISABELLE ROCHA MODESTO;V
78420;RALPH BLANKE GOTARDI;V;;F;ISABELLE ROCHA MODESTO;V
7843;RALPH BLANKE GOTARDI;V;;F;ISABELLE ROCHA MODESTO;V
106182;RALPH BLANKE GOTARDI;V;;F;ISABELLE ROCHA MODESTO;V
99898;RALPH BLANKE GOTARDI;V;;F;ISABELLE ROCHA MODESTO;V
97738;RALPH BLANKE GOTARDI;V;;F;ISABELLE ROCHA MODESTO;V
97731;RALPH BLANKE GOTARDI;V;;F;ISABELLE ROCHA MODESTO;V
97750;RALPH BLANKE GOTARDI;V;;F;ISABELLE ROCHA MODESTO;V
97728;RALPH BLANKE GOTARDI;V;;F;ISABELLE ROCHA MODESTO;V
23357;RALPH BLANKE GOTARDI;V;;F;ISABELLE ROCHA MODESTO;V
96139;RALPH BLANKE GOTARDI;V;;F;CLAILTON DUARTE DA SILVA;V
22540;RALPH BLANKE GOTARDI;V;;F;CLAILTON DUARTE DA SILVA;V
22569;RALPH BLANKE GOTARDI;V;;F;CLAILTON DUARTE DA SILVA;V
22539;RALPH BLANKE GOTARDI;V;;F;CLAILTON DUARTE DA SILVA;V
105135;RALPH BLANKE GOTARDI;V;;F;CLAILTON DUARTE DA SILVA;V
7170;RALPH BLANKE GOTARDI;V;;F;CLAILTON DUARTE DA SILVA;V
107681;RALPH BLANKE GOTARDI;V;;F;CLAILTON DUARTE DA SILVA;V
6207;RALPH BLANKE GOTARDI;V;;F;CLAILTON DUARTE DA SILVA;V
6201;RALPH BLANKE GOTARDI;V;;F;CLAILTON DUARTE DA SILVA;V
97675;RALPH BLANKE GOTARDI;V;;F;CLAILTON DUARTE DA SILVA;V
107682;RALPH BLANKE GOTARDI;V;;F;CLAILTON DUARTE DA SILVA;V
22651;RALPH BLANKE GOTARDI;V;;F;CLAILTON DUARTE DA SILVA;V
22582;RALPH BLANKE GOTARDI;V;;F;CLAILTON DUARTE DA SILVA;V
22579;RALPH BLANKE GOTARDI;V;;F;CLAILTON DUARTE DA SILVA;V
14107;RALPH BLANKE GOTARDI;V;;F;CLAILTON DUARTE DA SILVA;V
22593;RALPH BLANKE GOTARDI;V;;F;CLAILTON DUARTE DA SILVA;V
22580;RALPH BLANKE GOTARDI;V;;F;CLAILTON DUARTE DA SILVA;V
22538;RALPH BLANKE GOTARDI;V;;F;CLAILTON DUARTE DA SILVA;V
22535;RALPH BLANKE GOTARDI;V;;F;CLAILTON DUARTE DA SILVA;V
22537;RALPH BLANKE GOTARDI;V;;F;CLAILTON DUARTE DA SILVA;V
22536;RALPH BLANKE GOTARDI;V;;F;CLAILTON DUARTE DA SILVA;V
91451;RALPH BLANKE GOTARDI;V;;F;LEANDRO LAURINDO DA MATA;V
91456;RALPH BLANKE GOTARDI;V;;F;LEANDRO LAURINDO DA MATA;V
91452;RALPH BLANKE GOTARDI;V;;F;LEANDRO LAURINDO DA MATA;V
91455;RALPH BLANKE GOTARDI;V;;F;LEANDRO LAURINDO DA MATA;V
91453;RALPH BLANKE GOTARDI;V;;F;LEANDRO LAURINDO DA MATA;V
91501;RALPH BLANKE GOTARDI;V;;F;LEANDRO LAURINDO DA MATA;V
102224;RALPH BLANKE GOTARDI;V;;F;LEANDRO LAURINDO DA MATA;V
6181;RALPH BLANKE GOTARDI;V;;F;LEANDRO LAURINDO DA MATA;V
6183;RALPH BLANKE GOTARDI;V;;F;LEANDRO LAURINDO DA MATA;V
6182;RALPH BLANKE GOTARDI;V;;F;LEANDRO LAURINDO DA MATA;V
91499;RALPH BLANKE GOTARDI;V;;F;LEANDRO LAURINDO DA MATA;V
99736;RALPH BLANKE GOTARDI;V;;F;LEANDRO LAURINDO DA MATA;V
91567;RALPH BLANKE GOTARDI;V;;F;LEANDRO LAURINDO DA MATA;V
91498;RALPH BLANKE GOTARDI;V;;F;LEANDRO LAURINDO DA MATA;V
12572;RALPH BLANKE GOTARDI;V;;F;LEANDRO LAURINDO DA MATA;V
6967;RALPH BLANKE GOTARDI;V;;F;LEANDRO LAURINDO DA MATA;V
89946;RALPH BLANKE GOTARDI;V;;F;LEANDRO LAURINDO DA MATA;V
6677;RALPH BLANKE GOTARDI;V;;F;LEANDRO LAURINDO DA MATA;V
100065;RALPH BLANKE GOTARDI;V;;F;LEANDRO LAURINDO DA MATA;V
107685;RALPH BLANKE GOTARDI;V;;F;LEANDRO LAURINDO DA MATA;V
6177;RALPH BLANKE GOTARDI;V;;F;LEANDRO LAURINDO DA MATA;V
91500;RALPH BLANKE GOTARDI;V;;F;LEANDRO LAURINDO DA MATA;V
91568;RALPH BLANKE GOTARDI;V;;F;LEANDRO LAURINDO DA MATA;V
100066;RALPH BLANKE GOTARDI;V;;F;LEANDRO LAURINDO DA MATA;V
6184;RALPH BLANKE GOTARDI;V;;F;LEANDRO LAURINDO DA MATA;V
6186;RALPH BLANKE GOTARDI;V;;F;LEANDRO LAURINDO DA MATA;V
89292;RALPH BLANKE GOTARDI;V;;F;LEANDRO LAURINDO DA MATA;V
92965;RALPH BLANKE GOTARDI;V;;F;LEANDRO LAURINDO DA MATA;V
91590;RALPH BLANKE GOTARDI;V;;F;LEANDRO LAURINDO DA MATA;V
92680;RALPH BLANKE GOTARDI;V;;F;LEANDRO LAURINDO DA MATA;V
91502;RALPH BLANKE GOTARDI;V;;F;LEANDRO LAURINDO DA MATA;V
92964;RALPH BLANKE GOTARDI;V;;F;LEANDRO LAURINDO DA MATA;V
22726;RALPH BLANKE GOTARDI;V;;F;ISAAC COSTA E SILVA DE ARAUJO;V
95153;RALPH BLANKE GOTARDI;V;;F;ISAAC COSTA E SILVA DE ARAUJO;V
22723;RALPH BLANKE GOTARDI;V;;F;ISAAC COSTA E SILVA DE ARAUJO;V
96132;RALPH BLANKE GOTARDI;V;;F;ISAAC COSTA E SILVA DE ARAUJO;V
95977;RALPH BLANKE GOTARDI;V;;F;ISAAC COSTA E SILVA DE ARAUJO;V
95761;RALPH BLANKE GOTARDI;V;;F;ISAAC COSTA E SILVA DE ARAUJO;V
95976;RALPH BLANKE GOTARDI;V;;F;ISAAC COSTA E SILVA DE ARAUJO;V
95407;RALPH BLANKE GOTARDI;V;;F;ISAAC COSTA E SILVA DE ARAUJO;V
96150;RALPH BLANKE GOTARDI;V;;F;ISAAC COSTA E SILVA DE ARAUJO;V
14366;RALPH BLANKE GOTARDI;V;;F;ISAAC COSTA E SILVA DE ARAUJO;V
102126;RALPH BLANKE GOTARDI;V;;F;ISAAC COSTA E SILVA DE ARAUJO;V
22717;RALPH BLANKE GOTARDI;V;;F;ISAAC COSTA E SILVA DE ARAUJO;V
6297;RALPH BLANKE GOTARDI;V;;F;ISAAC COSTA E SILVA DE ARAUJO;V
7828;RALPH BLANKE GOTARDI;V;;F;ISAAC COSTA E SILVA DE ARAUJO;V
95847;RALPH BLANKE GOTARDI;V;;F;ISAAC COSTA E SILVA DE ARAUJO;V
6309;RALPH BLANKE GOTARDI;V;;F;ISAAC COSTA E SILVA DE ARAUJO;V
95848;RALPH BLANKE GOTARDI;V;;F;ISAAC COSTA E SILVA DE ARAUJO;V
7834;RALPH BLANKE GOTARDI;V;;F;ISAAC COSTA E SILVA DE ARAUJO;V
22725;RALPH BLANKE GOTARDI;V;;F;ISAAC COSTA E SILVA DE ARAUJO;V
38075;RALPH BLANKE GOTARDI;V;;F;ISAAC COSTA E SILVA DE ARAUJO;V
22727;RALPH BLANKE GOTARDI;V;;F;ISAAC COSTA E SILVA DE ARAUJO;V
22728;RALPH BLANKE GOTARDI;V;;F;ISAAC COSTA E SILVA DE ARAUJO;V
95985;RALPH BLANKE GOTARDI;V;;F;ISAAC COSTA E SILVA DE ARAUJO;V
83428;RALPH BLANKE GOTARDI;V;;F;ISAAC COSTA E SILVA DE ARAUJO;V
22719;RALPH BLANKE GOTARDI;V;;F;ISAAC COSTA E SILVA DE ARAUJO;V
22724;RALPH BLANKE GOTARDI;V;;F;ISAAC COSTA E SILVA DE ARAUJO;V
95862;RALPH BLANKE GOTARDI;V;;F;ISAAC COSTA E SILVA DE ARAUJO;V
99738;RALPH BLANKE GOTARDI;V;;F;ISAAC COSTA E SILVA DE ARAUJO;V
101798;RALPH BLANKE GOTARDI;V;;F;ISAAC COSTA E SILVA DE ARAUJO;V
7797;RALPH BLANKE GOTARDI;V;;F;LUCIVANIA APARECIDA DA SILVA;V
92763;RALPH BLANKE GOTARDI;V;;F;LUCIVANIA APARECIDA DA SILVA;V
99942;RALPH BLANKE GOTARDI;V;;F;LUCIVANIA APARECIDA DA SILVA;V
23150;RALPH BLANKE GOTARDI;V;;F;LUCIVANIA APARECIDA DA SILVA;V
96062;RALPH BLANKE GOTARDI;V;;F;LUCIVANIA APARECIDA DA SILVA;V
93658;RALPH BLANKE GOTARDI;V;;F;LUCIVANIA APARECIDA DA SILVA;V
92400;RALPH BLANKE GOTARDI;V;;F;LUCIVANIA APARECIDA DA SILVA;V
7798;RALPH BLANKE GOTARDI;V;;F;LUCIVANIA APARECIDA DA SILVA;V
100096;RALPH BLANKE GOTARDI;V;;F;LUCIVANIA APARECIDA DA SILVA;V
7799;RALPH BLANKE GOTARDI;V;;F;LUCIVANIA APARECIDA DA SILVA;V
23145;RALPH BLANKE GOTARDI;V;;F;LUCIVANIA APARECIDA DA SILVA;V
14154;RALPH BLANKE GOTARDI;V;;F;LUCIVANIA APARECIDA DA SILVA;V
25106;RALPH BLANKE GOTARDI;V;;F;LUCIVANIA APARECIDA DA SILVA;V
89938;RALPH BLANKE GOTARDI;V;;F;LUCIVANIA APARECIDA DA SILVA;V
7820;RALPH BLANKE GOTARDI;V;;F;LUCIVANIA APARECIDA DA SILVA;V
13977;RALPH BLANKE GOTARDI;V;;F;LUCIVANIA APARECIDA DA SILVA;V
13978;RALPH BLANKE GOTARDI;V;;F;LUCIVANIA APARECIDA DA SILVA;V
99602;RALPH BLANKE GOTARDI;V;;F;LUCIVANIA APARECIDA DA SILVA;V
31703;RALPH BLANKE GOTARDI;V;;F;LUCIVANIA APARECIDA DA SILVA;V
7794;RALPH BLANKE GOTARDI;V;;F;LUCIVANIA APARECIDA DA SILVA;V
96750;RALPH BLANKE GOTARDI;V;;F;LUCIVANIA APARECIDA DA SILVA;V
6900;RALPH BLANKE GOTARDI;V;;F;LUCIVANIA APARECIDA DA SILVA;V
95867;RALPH BLANKE GOTARDI;V;;F;LUCIVANIA APARECIDA DA SILVA;V
89934;RALPH BLANKE GOTARDI;V;;F;LUCIVANIA APARECIDA DA SILVA;V
7815;RALPH BLANKE GOTARDI;V;;F;LUCIVANIA APARECIDA DA SILVA;V
7821;RALPH BLANKE GOTARDI;V;;F;LUCIVANIA APARECIDA DA SILVA;V
96761;RALPH BLANKE GOTARDI;V;;F;LUCIVANIA APARECIDA DA SILVA;V
94396;RALPH BLANKE GOTARDI;V;;F;LUCIVANIA APARECIDA DA SILVA;V
7811;RALPH BLANKE GOTARDI;V;;F;LUCIVANIA APARECIDA DA SILVA;V
7795;RALPH BLANKE GOTARDI;V;;F;LUCIVANIA APARECIDA DA SILVA;V
7800;RALPH BLANKE GOTARDI;V;;F;LUCIVANIA APARECIDA DA SILVA;V
98448;CLODOALDO GONCALVES SANTOS;V;;F;MARCUS VINICIUS SILVA BASTOS;V
5725;CLODOALDO GONCALVES SANTOS;V;;F;MARCUS VINICIUS SILVA BASTOS;V
92159;CLODOALDO GONCALVES SANTOS;V;;F;MARCUS VINICIUS SILVA BASTOS;V
22435;CLODOALDO GONCALVES SANTOS;V;;F;MARCUS VINICIUS SILVA BASTOS;V
5815;CLODOALDO GONCALVES SANTOS;V;;F;MARCUS VINICIUS SILVA BASTOS;V
6259;CLODOALDO GONCALVES SANTOS;V;;F;MARCUS VINICIUS SILVA BASTOS;V
97200;CLODOALDO GONCALVES SANTOS;V;;F;MARCUS VINICIUS SILVA BASTOS;V
6224;CLODOALDO GONCALVES SANTOS;V;;F;MARCUS VINICIUS SILVA BASTOS;V
24605;CLODOALDO GONCALVES SANTOS;V;;F;MARCUS VINICIUS SILVA BASTOS;V
91483;CLODOALDO GONCALVES SANTOS;V;;F;MARCUS VINICIUS SILVA BASTOS;V
6225;CLODOALDO GONCALVES SANTOS;V;;F;MARCUS VINICIUS SILVA BASTOS;V
13731;CLODOALDO GONCALVES SANTOS;V;;F;MARCUS VINICIUS SILVA BASTOS;V
91546;CLODOALDO GONCALVES SANTOS;V;;F;MARCUS VINICIUS SILVA BASTOS;V
6148;CLODOALDO GONCALVES SANTOS;V;;F;MARCUS VINICIUS SILVA BASTOS;V
92687;CLODOALDO GONCALVES SANTOS;V;;F;MARCUS VINICIUS SILVA BASTOS;V
44924;CLODOALDO GONCALVES SANTOS;V;;F;MARCUS VINICIUS SILVA BASTOS;V
96185;CLODOALDO GONCALVES SANTOS;V;;F;MARCUS VINICIUS SILVA BASTOS;V
7865;CLODOALDO GONCALVES SANTOS;V;;F;MARCUS VINICIUS SILVA BASTOS;V
7876;CLODOALDO GONCALVES SANTOS;V;;F;MARCUS VINICIUS SILVA BASTOS;V
98435;CLODOALDO GONCALVES SANTOS;V;;F;MARCUS VINICIUS SILVA BASTOS;V
7122;CLODOALDO GONCALVES SANTOS;V;;F;MARCUS VINICIUS SILVA BASTOS;V
36319;CLODOALDO GONCALVES SANTOS;V;;F;MARCUS VINICIUS SILVA BASTOS;V
7883;CLODOALDO GONCALVES SANTOS;V;;F;MARCUS VINICIUS SILVA BASTOS;V
6228;CLODOALDO GONCALVES SANTOS;V;;F;MARCUS VINICIUS SILVA BASTOS;V
6223;CLODOALDO GONCALVES SANTOS;V;;F;MARCUS VINICIUS SILVA BASTOS;V
6219;CLODOALDO GONCALVES SANTOS;V;;F;MARCUS VINICIUS SILVA BASTOS;V
44923;CLODOALDO GONCALVES SANTOS;V;;F;MARCUS VINICIUS SILVA BASTOS;V
92845;CLODOALDO GONCALVES SANTOS;V;;F;MARCUS VINICIUS SILVA BASTOS;V
90167;CLODOALDO GONCALVES SANTOS;V;;F;MARCUS VINICIUS SILVA BASTOS;V
89815;CLODOALDO GONCALVES SANTOS;V;;F;MARCUS VINICIUS SILVA BASTOS;V
89817;CLODOALDO GONCALVES SANTOS;V;;F;MARCUS VINICIUS SILVA BASTOS;V
93700;CLODOALDO GONCALVES SANTOS;V;;F;MARCUS VINICIUS SILVA BASTOS;V
90164;CLODOALDO GONCALVES SANTOS;V;;F;MARCUS VINICIUS SILVA BASTOS;V
90165;CLODOALDO GONCALVES SANTOS;V;;F;MARCUS VINICIUS SILVA BASTOS;V
90168;CLODOALDO GONCALVES SANTOS;V;;F;MARCUS VINICIUS SILVA BASTOS;V
22469;CLODOALDO GONCALVES SANTOS;V;;F;SORAYA ALESSANDRA TAVARES SANTOS;V
22494;CLODOALDO GONCALVES SANTOS;V;;F;SORAYA ALESSANDRA TAVARES SANTOS;V
22487;CLODOALDO GONCALVES SANTOS;V;;F;SORAYA ALESSANDRA TAVARES SANTOS;V
23841;CLODOALDO GONCALVES SANTOS;V;;F;SORAYA ALESSANDRA TAVARES SANTOS;V
22489;CLODOALDO GONCALVES SANTOS;V;;F;SORAYA ALESSANDRA TAVARES SANTOS;V
92923;CLODOALDO GONCALVES SANTOS;V;;F;SORAYA ALESSANDRA TAVARES SANTOS;V
89789;CLODOALDO GONCALVES SANTOS;V;;F;SORAYA ALESSANDRA TAVARES SANTOS;V
22484;CLODOALDO GONCALVES SANTOS;V;;F;SORAYA ALESSANDRA TAVARES SANTOS;V
43660;CLODOALDO GONCALVES SANTOS;V;;F;SORAYA ALESSANDRA TAVARES SANTOS;V
22570;CLODOALDO GONCALVES SANTOS;V;;F;SORAYA ALESSANDRA TAVARES SANTOS;V
99896;CLODOALDO GONCALVES SANTOS;V;;F;SORAYA ALESSANDRA TAVARES SANTOS;V
95413;CLODOALDO GONCALVES SANTOS;V;;F;SORAYA ALESSANDRA TAVARES SANTOS;V
22476;CLODOALDO GONCALVES SANTOS;V;;F;SORAYA ALESSANDRA TAVARES SANTOS;V
22475;CLODOALDO GONCALVES SANTOS;V;;F;SORAYA ALESSANDRA TAVARES SANTOS;V
22473;CLODOALDO GONCALVES SANTOS;V;;F;SORAYA ALESSANDRA TAVARES SANTOS;V
22480;CLODOALDO GONCALVES SANTOS;V;;F;SORAYA ALESSANDRA TAVARES SANTOS;V
92761;CLODOALDO GONCALVES SANTOS;V;;F;SORAYA ALESSANDRA TAVARES SANTOS;V
22479;CLODOALDO GONCALVES SANTOS;V;;F;SORAYA ALESSANDRA TAVARES SANTOS;V
22471;CLODOALDO GONCALVES SANTOS;V;;F;SORAYA ALESSANDRA TAVARES SANTOS;V
14113;CLODOALDO GONCALVES SANTOS;V;;F;SORAYA ALESSANDRA TAVARES SANTOS;V
83355;CLODOALDO GONCALVES SANTOS;V;;F;SORAYA ALESSANDRA TAVARES SANTOS;V
22483;CLODOALDO GONCALVES SANTOS;V;;F;SORAYA ALESSANDRA TAVARES SANTOS;V
22472;CLODOALDO GONCALVES SANTOS;V;;F;SORAYA ALESSANDRA TAVARES SANTOS;V
47301;CLODOALDO GONCALVES SANTOS;V;;F;SORAYA ALESSANDRA TAVARES SANTOS;V
83612;CLODOALDO GONCALVES SANTOS;V;;F;SORAYA ALESSANDRA TAVARES SANTOS;V
83458;CLODOALDO GONCALVES SANTOS;V;;F;SORAYA ALESSANDRA TAVARES SANTOS;V
22865;CLODOALDO GONCALVES SANTOS;V;;F;SORAYA ALESSANDRA TAVARES SANTOS;V
22864;CLODOALDO GONCALVES SANTOS;V;;F;SORAYA ALESSANDRA TAVARES SANTOS;V
92274;CLODOALDO GONCALVES SANTOS;V;;F;MARCOS ROBERTO MACHADO LINS;V
95410;CLODOALDO GONCALVES SANTOS;V;;F;MARCOS ROBERTO MACHADO LINS;V
22669;CLODOALDO GONCALVES SANTOS;V;;F;MARCOS ROBERTO MACHADO LINS;V
98407;CLODOALDO GONCALVES SANTOS;V;;F;MARCOS ROBERTO MACHADO LINS;V
102187;CLODOALDO GONCALVES SANTOS;V;;F;MARCOS ROBERTO MACHADO LINS;V
92268;CLODOALDO GONCALVES SANTOS;V;;F;MARCOS ROBERTO MACHADO LINS;V
94337;CLODOALDO GONCALVES SANTOS;V;;F;MARCOS ROBERTO MACHADO LINS;V
94338;CLODOALDO GONCALVES SANTOS;V;;F;MARCOS ROBERTO MACHADO LINS;V
90492;CLODOALDO GONCALVES SANTOS;V;;F;MARCOS ROBERTO MACHADO LINS;V
102338;CLODOALDO GONCALVES SANTOS;V;;F;MARCOS ROBERTO MACHADO LINS;V
83623;CLODOALDO GONCALVES SANTOS;V;;F;MARCOS ROBERTO MACHADO LINS;V
95339;CLODOALDO GONCALVES SANTOS;V;;F;MARCOS ROBERTO MACHADO LINS;V
91668;CLODOALDO GONCALVES SANTOS;V;;F;MARCOS ROBERTO MACHADO LINS;V
102185;CLODOALDO GONCALVES SANTOS;V;;F;MARCOS ROBERTO MACHADO LINS;V
90197;CLODOALDO GONCALVES SANTOS;V;;F;MARCOS ROBERTO MACHADO LINS;V
106834;CLODOALDO GONCALVES SANTOS;V;;F;MARCOS ROBERTO MACHADO LINS;V
14812;CLODOALDO GONCALVES SANTOS;V;;F;MARCOS ROBERTO MACHADO LINS;V
22655;CLODOALDO GONCALVES SANTOS;V;;F;MARCOS ROBERTO MACHADO LINS;V
95411;CLODOALDO GONCALVES SANTOS;V;;F;MARCOS ROBERTO MACHADO LINS;V
22656;CLODOALDO GONCALVES SANTOS;V;;F;MARCOS ROBERTO MACHADO LINS;V
22660;CLODOALDO GONCALVES SANTOS;V;;F;MARCOS ROBERTO MACHADO LINS;V
104905;CLODOALDO GONCALVES SANTOS;V;;F;MARCOS ROBERTO MACHADO LINS;V
83615;CLODOALDO GONCALVES SANTOS;V;;F;MARCOS ROBERTO MACHADO LINS;V
92210;CLODOALDO GONCALVES SANTOS;V;;F;MARCOS ROBERTO MACHADO LINS;V
94398;CLODOALDO GONCALVES SANTOS;V;;F;MARCOS ROBERTO MACHADO LINS;V
15611;CLODOALDO GONCALVES SANTOS;V;;F;MARCOS ROBERTO MACHADO LINS;V
15310;CLODOALDO GONCALVES SANTOS;V;;F;MARCOS ROBERTO MACHADO LINS;V
89782;CLODOALDO GONCALVES SANTOS;V;;F;MARCOS ROBERTO MACHADO LINS;V
98406;CLODOALDO GONCALVES SANTOS;V;;F;MARCOS ROBERTO MACHADO LINS;V
96780;CLODOALDO GONCALVES SANTOS;V;;F;MARCOS ROBERTO MACHADO LINS;V
113229;CLODOALDO GONCALVES SANTOS;V;;F;MARCOS ROBERTO MACHADO LINS;V
22675;CLODOALDO GONCALVES SANTOS;V;;F;MARCOS ROBERTO MACHADO LINS;V
22679;CLODOALDO GONCALVES SANTOS;V;;F;MARCOS ROBERTO MACHADO LINS;V
96776;CLODOALDO GONCALVES SANTOS;V;;F;MARCOS ROBERTO MACHADO LINS;V
15307;CLODOALDO GONCALVES SANTOS;V;;F;MARCOS ROBERTO MACHADO LINS;V
92349;CLODOALDO GONCALVES SANTOS;V;;F;MARCOS ROBERTO MACHADO LINS;V
15723;CLODOALDO GONCALVES SANTOS;V;;F;MARCOS ROBERTO MACHADO LINS;V
92335;CLODOALDO GONCALVES SANTOS;V;;F;MARCOS ROBERTO MACHADO LINS;V
107658;CLODOALDO GONCALVES SANTOS;V;;F;MARCOS ROBERTO MACHADO LINS;V
102404;CLODOALDO GONCALVES SANTOS;V;;F;MARCOS ROBERTO MACHADO LINS;V
90200;CLODOALDO GONCALVES SANTOS;V;;F;MARCOS ROBERTO MACHADO LINS;V
14087;CLODOALDO GONCALVES SANTOS;V;;F;MARCOS ROBERTO MACHADO LINS;V
45414;CLODOALDO GONCALVES SANTOS;V;;F;MARCOS ROBERTO MACHADO LINS;V
94278;CLODOALDO GONCALVES SANTOS;V;;F;MARCOS ROBERTO MACHADO LINS;V
99915;CLODOALDO GONCALVES SANTOS;V;;F;MARCOS ROBERTO MACHADO LINS;V
99906;CLODOALDO GONCALVES SANTOS;V;;F;MARCOS ROBERTO MACHADO LINS;V
101943;CLODOALDO GONCALVES SANTOS;V;;F;MARCOS ROBERTO MACHADO LINS;V
102493;CLODOALDO GONCALVES SANTOS;V;;F;MARCOS ROBERTO MACHADO LINS;V
99732;CLODOALDO GONCALVES SANTOS;V;;F;MARCOS ROBERTO MACHADO LINS;V
92685;CLODOALDO GONCALVES SANTOS;V;;F;MARCOS ROBERTO MACHADO LINS;V
38965;CLODOALDO GONCALVES SANTOS;V;;F;WELLINGTON QUIRINO DE JESUS;V
23482;CLODOALDO GONCALVES SANTOS;V;;F;WELLINGTON QUIRINO DE JESUS;V
11640;CLODOALDO GONCALVES SANTOS;V;;F;WELLINGTON QUIRINO DE JESUS;V
11641;CLODOALDO GONCALVES SANTOS;V;;F;WELLINGTON QUIRINO DE JESUS;V
14638;CLODOALDO GONCALVES SANTOS;V;;F;WELLINGTON QUIRINO DE JESUS;V
5840;CLODOALDO GONCALVES SANTOS;V;;F;WELLINGTON QUIRINO DE JESUS;V
38756;CLODOALDO GONCALVES SANTOS;V;;F;WELLINGTON QUIRINO DE JESUS;V
7062;CLODOALDO GONCALVES SANTOS;V;;F;WELLINGTON QUIRINO DE JESUS;V
97192;CLODOALDO GONCALVES SANTOS;V;;F;WELLINGTON QUIRINO DE JESUS;V
5817;CLODOALDO GONCALVES SANTOS;V;;F;WELLINGTON QUIRINO DE JESUS;V
5822;CLODOALDO GONCALVES SANTOS;V;;F;WELLINGTON QUIRINO DE JESUS;V
5839;CLODOALDO GONCALVES SANTOS;V;;F;WELLINGTON QUIRINO DE JESUS;V
22436;CLODOALDO GONCALVES SANTOS;V;;F;WELLINGTON QUIRINO DE JESUS;V
99697;CLODOALDO GONCALVES SANTOS;V;;F;WELLINGTON QUIRINO DE JESUS;V
21695;CLODOALDO GONCALVES SANTOS;V;;F;WELLINGTON QUIRINO DE JESUS;V
91488;CLODOALDO GONCALVES SANTOS;V;;F;WELLINGTON QUIRINO DE JESUS;V
6125;CLODOALDO GONCALVES SANTOS;V;;F;WELLINGTON QUIRINO DE JESUS;V
6121;CLODOALDO GONCALVES SANTOS;V;;F;WELLINGTON QUIRINO DE JESUS;V
6096;CLODOALDO GONCALVES SANTOS;V;;F;WELLINGTON QUIRINO DE JESUS;V
79741;CLODOALDO GONCALVES SANTOS;V;;F;WELLINGTON QUIRINO DE JESUS;V
11493;CLODOALDO GONCALVES SANTOS;V;;F;WELLINGTON QUIRINO DE JESUS;V
11492;CLODOALDO GONCALVES SANTOS;V;;F;WELLINGTON QUIRINO DE JESUS;V
11495;CLODOALDO GONCALVES SANTOS;V;;F;WELLINGTON QUIRINO DE JESUS;V
99734;CLODOALDO GONCALVES SANTOS;V;;F;WELLINGTON QUIRINO DE JESUS;V
41193;CLODOALDO GONCALVES SANTOS;V;;F;WELLINGTON QUIRINO DE JESUS;V
96313;CLODOALDO GONCALVES SANTOS;V;;F;WELLINGTON QUIRINO DE JESUS;V
5853;CLODOALDO GONCALVES SANTOS;V;;F;WELLINGTON QUIRINO DE JESUS;V
92686;CLODOALDO GONCALVES SANTOS;V;;F;WELLINGTON QUIRINO DE JESUS;V
91490;CLODOALDO GONCALVES SANTOS;V;;F;WELLINGTON QUIRINO DE JESUS;V
110784;CLODOALDO GONCALVES SANTOS;V;;F;WELLINGTON QUIRINO DE JESUS;V
12647;CLODOALDO GONCALVES SANTOS;V;;F;WELLINGTON QUIRINO DE JESUS;V
5847;CLODOALDO GONCALVES SANTOS;V;;F;WELLINGTON QUIRINO DE JESUS;V
5852;CLODOALDO GONCALVES SANTOS;V;;F;WELLINGTON QUIRINO DE JESUS;V
7664;JEAN FASANO;V;ANDERSON SANTOS SILVA;V;MATEUS SOUSA DE ABREU;V
5628;JEAN FASANO;V;ANDERSON SANTOS SILVA;V;MATEUS SOUSA DE ABREU;V
12264;JEAN FASANO;V;ANDERSON SANTOS SILVA;V;MATEUS SOUSA DE ABREU;V
8367;JEAN FASANO;V;ANDERSON SANTOS SILVA;V;MATEUS SOUSA DE ABREU;V
11471;JEAN FASANO;V;ANDERSON SANTOS SILVA;V;MATEUS SOUSA DE ABREU;V
12767;JEAN FASANO;V;ANDERSON SANTOS SILVA;V;MATEUS SOUSA DE ABREU;V
113120;JEAN FASANO;V;ANDERSON SANTOS SILVA;V;MATEUS SOUSA DE ABREU;V
6525;JEAN FASANO;V;ANDERSON SANTOS SILVA;V;MATEUS SOUSA DE ABREU;V
101098;JEAN FASANO;V;ANDERSON SANTOS SILVA;V;MATEUS SOUSA DE ABREU;V
92930;JEAN FASANO;V;ANDERSON SANTOS SILVA;V;MATEUS SOUSA DE ABREU;V
7684;JEAN FASANO;V;ANDERSON SANTOS SILVA;V;MATEUS SOUSA DE ABREU;V
6089;JEAN FASANO;V;ANDERSON SANTOS SILVA;V;CAIO AUGUSTO DE BRITO;V
14299;JEAN FASANO;V;ANDERSON SANTOS SILVA;V;CAIO AUGUSTO DE BRITO;V
6093;JEAN FASANO;V;ANDERSON SANTOS SILVA;V;CAIO AUGUSTO DE BRITO;V
8363;JEAN FASANO;V;ANDERSON SANTOS SILVA;V;CAIO AUGUSTO DE BRITO;V
6119;JEAN FASANO;V;ANDERSON SANTOS SILVA;V;CAIO AUGUSTO DE BRITO;V
6120;JEAN FASANO;V;ANDERSON SANTOS SILVA;V;CAIO AUGUSTO DE BRITO;V
6090;JEAN FASANO;V;ANDERSON SANTOS SILVA;V;CAIO AUGUSTO DE BRITO;V
8449;JEAN FASANO;V;ANDERSON SANTOS SILVA;V;CAIO AUGUSTO DE BRITO;V
102177;JEAN FASANO;V;ANDERSON SANTOS SILVA;V;CAIO AUGUSTO DE BRITO;V
102180;JEAN FASANO;V;ANDERSON SANTOS SILVA;V;CAIO AUGUSTO DE BRITO;V
6102;JEAN FASANO;V;ANDERSON SANTOS SILVA;V;CAIO AUGUSTO DE BRITO;V
48747;JEAN FASANO;V;ANDERSON SANTOS SILVA;V;CAIO AUGUSTO DE BRITO;V
92935;JEAN FASANO;V;ANDERSON SANTOS SILVA;V;CAIO AUGUSTO DE BRITO;V
6140;JEAN FASANO;V;ANDERSON SANTOS SILVA;V;CAIO AUGUSTO DE BRITO;V
7657;JEAN FASANO;V;ANDERSON SANTOS SILVA;V;CAIO AUGUSTO DE BRITO;V
8524;JEAN FASANO;V;ANDERSON SANTOS SILVA;V;CAIO AUGUSTO DE BRITO;V
8148;JEAN FASANO;V;ANDERSON SANTOS SILVA;V;CAIO AUGUSTO DE BRITO;V
111635;JEAN FASANO;V;ANDERSON SANTOS SILVA;V;CAIO AUGUSTO DE BRITO;V
12764;JEAN FASANO;V;ANDERSON SANTOS SILVA;V;CAIO AUGUSTO DE BRITO;V
8138;JEAN FASANO;V;ANDERSON SANTOS SILVA;V;CAIO AUGUSTO DE BRITO;V
88938;JEAN FASANO;V;ANDERSON SANTOS SILVA;V;CAIO AUGUSTO DE BRITO;V
8152;JEAN FASANO;V;ANDERSON SANTOS SILVA;V;CAIO AUGUSTO DE BRITO;V
96053;JEAN FASANO;V;ANDERSON SANTOS SILVA;V;CAIO AUGUSTO DE BRITO;V
11477;JEAN FASANO;V;ANDERSON SANTOS SILVA;V;CAIO AUGUSTO DE BRITO;V
6116;JEAN FASANO;V;ANDERSON SANTOS SILVA;V;CAIO AUGUSTO DE BRITO;V
15801;JEAN FASANO;V;ANDERSON SANTOS SILVA;V;CAIO AUGUSTO DE BRITO;V
101941;JEAN FASANO;V;ANDERSON SANTOS SILVA;V;RENI TIAGO;V
11461;JEAN FASANO;V;ANDERSON SANTOS SILVA;V;RENI TIAGO;V
6190;JEAN FASANO;V;ANDERSON SANTOS SILVA;V;RENI TIAGO;V
98309;JEAN FASANO;V;ANDERSON SANTOS SILVA;V;RENI TIAGO;V
91578;JEAN FASANO;V;ANDERSON SANTOS SILVA;V;RENI TIAGO;V
6311;JEAN FASANO;V;ANDERSON SANTOS SILVA;V;RENI TIAGO;V
44995;JEAN FASANO;V;ANDERSON SANTOS SILVA;V;RENI TIAGO;V
7932;JEAN FASANO;V;ANDERSON SANTOS SILVA;V;RENI TIAGO;V
6199;JEAN FASANO;V;ANDERSON SANTOS SILVA;V;RENI TIAGO;V
6189;JEAN FASANO;V;ANDERSON SANTOS SILVA;V;RENI TIAGO;V
11746;JEAN FASANO;V;ANDERSON SANTOS SILVA;V;RENI TIAGO;V
12795;JEAN FASANO;V;ANDERSON SANTOS SILVA;V;RENI TIAGO;V
6328;JEAN FASANO;V;ANDERSON SANTOS SILVA;V;RENI TIAGO;V
38176;JEAN FASANO;V;ANDERSON SANTOS SILVA;V;RENI TIAGO;V
6187;JEAN FASANO;V;ANDERSON SANTOS SILVA;V;RENI TIAGO;V
6134;JEAN FASANO;V;ANDERSON SANTOS SILVA;V;RENI TIAGO;V
7105;JEAN FASANO;V;ANDERSON SANTOS SILVA;V;RENI TIAGO;V
44996;JEAN FASANO;V;ANDERSON SANTOS SILVA;V;RENI TIAGO;V
8391;JEAN FASANO;V;ANDERSON SANTOS SILVA;V;RENI TIAGO;V
7968;JEAN FASANO;V;ANDERSON SANTOS SILVA;V;VIVIEN DE LIMA MATOS;V
8020;JEAN FASANO;V;ANDERSON SANTOS SILVA;V;VIVIEN DE LIMA MATOS;V
8016;JEAN FASANO;V;ANDERSON SANTOS SILVA;V;VIVIEN DE LIMA MATOS;V
6368;JEAN FASANO;V;ANDERSON SANTOS SILVA;V;VIVIEN DE LIMA MATOS;V
7976;JEAN FASANO;V;ANDERSON SANTOS SILVA;V;VIVIEN DE LIMA MATOS;V
7268;JEAN FASANO;V;ANDERSON SANTOS SILVA;V;VIVIEN DE LIMA MATOS;V
6284;JEAN FASANO;V;ANDERSON SANTOS SILVA;V;VIVIEN DE LIMA MATOS;V
6193;JEAN FASANO;V;ANDERSON SANTOS SILVA;V;VIVIEN DE LIMA MATOS;V
6318;JEAN FASANO;V;ANDERSON SANTOS SILVA;V;VIVIEN DE LIMA MATOS;V
8023;JEAN FASANO;V;ANDERSON SANTOS SILVA;V;VIVIEN DE LIMA MATOS;V
32051;JEAN FASANO;V;ANDERSON SANTOS SILVA;V;VIVIEN DE LIMA MATOS;V
95343;JEAN FASANO;V;ANDERSON SANTOS SILVA;V;VIVIEN DE LIMA MATOS;V
102197;JEAN FASANO;V;ANDERSON SANTOS SILVA;V;VIVIEN DE LIMA MATOS;V
12335;JEAN FASANO;V;ANDERSON SANTOS SILVA;V;VIVIEN DE LIMA MATOS;V
6751;JEAN FASANO;V;ANDERSON SANTOS SILVA;V;VIVIEN DE LIMA MATOS;V
7966;JEAN FASANO;V;ANDERSON SANTOS SILVA;V;VIVIEN DE LIMA MATOS;V
6364;JEAN FASANO;V;ANDERSON SANTOS SILVA;V;VIVIEN DE LIMA MATOS;V
7992;JEAN FASANO;V;ANDERSON SANTOS SILVA;V;VIVIEN DE LIMA MATOS;V
13837;JEAN FASANO;V;ANDERSON SANTOS SILVA;V;VIVIEN DE LIMA MATOS;V
7985;JEAN FASANO;V;ANDERSON SANTOS SILVA;V;ANDERSON ROGERIO DE FREITAS;V
12023;JEAN FASANO;V;ANDERSON SANTOS SILVA;V;ANDERSON ROGERIO DE FREITAS;V
15844;JEAN FASANO;V;ANDERSON SANTOS SILVA;V;ANDERSON ROGERIO DE FREITAS;V
7980;JEAN FASANO;V;ANDERSON SANTOS SILVA;V;ANDERSON ROGERIO DE FREITAS;V
12409;JEAN FASANO;V;ANDERSON SANTOS SILVA;V;ANDERSON ROGERIO DE FREITAS;V
11453;JEAN FASANO;V;ANDERSON SANTOS SILVA;V;ANDERSON ROGERIO DE FREITAS;V
6796;JEAN FASANO;V;ANDERSON SANTOS SILVA;V;ANDERSON ROGERIO DE FREITAS;V
7998;JEAN FASANO;V;ANDERSON SANTOS SILVA;V;ANDERSON ROGERIO DE FREITAS;V
7362;JEAN FASANO;V;ANDERSON SANTOS SILVA;V;ANDERSON ROGERIO DE FREITAS;V
8022;JEAN FASANO;V;ANDERSON SANTOS SILVA;V;ANDERSON ROGERIO DE FREITAS;V
6711;JEAN FASANO;V;ANDERSON SANTOS SILVA;V;ANDERSON ROGERIO DE FREITAS;V
92937;JEAN FASANO;V;ANDERSON SANTOS SILVA;V;ANDERSON ROGERIO DE FREITAS;V
7238;JEAN FASANO;V;ANDERSON SANTOS SILVA;V;ANDERSON ROGERIO DE FREITAS;V
8002;JEAN FASANO;V;ANDERSON SANTOS SILVA;V;ANDERSON ROGERIO DE FREITAS;V
23668;JEAN FASANO;V;CLEBER VALENTIM MOREIRA;V;JOCEMARA NEPUMOCENO;V
5808;JEAN FASANO;V;CLEBER VALENTIM MOREIRA;V;JOCEMARA NEPUMOCENO;V
91572;JEAN FASANO;V;CLEBER VALENTIM MOREIRA;V;JOCEMARA NEPUMOCENO;V
6037;JEAN FASANO;V;CLEBER VALENTIM MOREIRA;V;JOCEMARA NEPUMOCENO;V
89205;JEAN FASANO;V;CLEBER VALENTIM MOREIRA;V;JOCEMARA NEPUMOCENO;V
87879;JEAN FASANO;V;CLEBER VALENTIM MOREIRA;V;JOCEMARA NEPUMOCENO;V
8090;JEAN FASANO;V;CLEBER VALENTIM MOREIRA;V;JOCEMARA NEPUMOCENO;V
6034;JEAN FASANO;V;CLEBER VALENTIM MOREIRA;V;JOCEMARA NEPUMOCENO;V
20598;JEAN FASANO;V;CLEBER VALENTIM MOREIRA;V;JOCEMARA NEPUMOCENO;V
95138;JEAN FASANO;V;CLEBER VALENTIM MOREIRA;V;JOCEMARA NEPUMOCENO;V
6055;JEAN FASANO;V;CLEBER VALENTIM MOREIRA;V;JOCEMARA NEPUMOCENO;V
6040;JEAN FASANO;V;CLEBER VALENTIM MOREIRA;V;JOCEMARA NEPUMOCENO;V
91469;JEAN FASANO;V;CLEBER VALENTIM MOREIRA;V;KARINY LOPES DA CRUZ;V
7702;JEAN FASANO;V;CLEBER VALENTIM MOREIRA;V;KARINY LOPES DA CRUZ;V
6084;JEAN FASANO;V;CLEBER VALENTIM MOREIRA;V;KARINY LOPES DA CRUZ;V
6038;JEAN FASANO;V;CLEBER VALENTIM MOREIRA;V;KARINY LOPES DA CRUZ;V
6042;JEAN FASANO;V;CLEBER VALENTIM MOREIRA;V;KARINY LOPES DA CRUZ;V
5937;JEAN FASANO;V;CLEBER VALENTIM MOREIRA;V;KARINY LOPES DA CRUZ;V
5929;JEAN FASANO;V;CLEBER VALENTIM MOREIRA;V;KARINY LOPES DA CRUZ;V
8118;JEAN FASANO;V;CLEBER VALENTIM MOREIRA;V;KARINY LOPES DA CRUZ;V
25039;JEAN FASANO;V;CLEBER VALENTIM MOREIRA;V;KARINY LOPES DA CRUZ;V
5925;JEAN FASANO;V;CLEBER VALENTIM MOREIRA;V;KARINY LOPES DA CRUZ;V
6041;JEAN FASANO;V;CLEBER VALENTIM MOREIRA;V;KARINY LOPES DA CRUZ;V
94329;JEAN FASANO;V;CLEBER VALENTIM MOREIRA;V;KARINY LOPES DA CRUZ;V
94321;JEAN FASANO;V;CLEBER VALENTIM MOREIRA;V;KARINY LOPES DA CRUZ;V
5924;JEAN FASANO;V;CLEBER VALENTIM MOREIRA;V;KARINY LOPES DA CRUZ;V
12578;JEAN FASANO;V;CLEBER VALENTIM MOREIRA;V;HENRIQUE FALATO CECCONI;V
6209;JEAN FASANO;V;CLEBER VALENTIM MOREIRA;V;HENRIQUE FALATO CECCONI;V
79777;JEAN FASANO;V;CLEBER VALENTIM MOREIRA;V;HENRIQUE FALATO CECCONI;V
40953;JEAN FASANO;V;CLEBER VALENTIM MOREIRA;V;HENRIQUE FALATO CECCONI;V
102492;JEAN FASANO;V;CLEBER VALENTIM MOREIRA;V;HENRIQUE FALATO CECCONI;V
90244;JEAN FASANO;V;CLEBER VALENTIM MOREIRA;V;HENRIQUE FALATO CECCONI;V
40869;JEAN FASANO;V;CLEBER VALENTIM MOREIRA;V;HENRIQUE FALATO CECCONI;V
42315;JEAN FASANO;V;CLEBER VALENTIM MOREIRA;V;HENRIQUE FALATO CECCONI;V
98316;JEAN FASANO;V;CLEBER VALENTIM MOREIRA;V;HENRIQUE FALATO CECCONI;V
40878;JEAN FASANO;V;CLEBER VALENTIM MOREIRA;V;HENRIQUE FALATO CECCONI;V
6754;JEAN FASANO;V;CLEBER VALENTIM MOREIRA;V;HENRIQUE FALATO CECCONI;V
8064;JEAN FASANO;V;CLEBER VALENTIM MOREIRA;V;HENRIQUE FALATO CECCONI;V
14404;JEAN FASANO;V;CLEBER VALENTIM MOREIRA;V;HENRIQUE FALATO CECCONI;V
82757;JEAN FASANO;V;CLEBER VALENTIM MOREIRA;V;HENRIQUE FALATO CECCONI;V
7411;JEAN FASANO;V;ANTONIA KLEBIANA PINHEIRO DE SOUSA;V;JOSIMAR GUIMARAES DOS SANTOS;V
12807;JEAN FASANO;V;ANTONIA KLEBIANA PINHEIRO DE SOUSA;V;JOSIMAR GUIMARAES DOS SANTOS;V
7407;JEAN FASANO;V;ANTONIA KLEBIANA PINHEIRO DE SOUSA;V;JOSIMAR GUIMARAES DOS SANTOS;V
7418;JEAN FASANO;V;ANTONIA KLEBIANA PINHEIRO DE SOUSA;V;JOSIMAR GUIMARAES DOS SANTOS;V
7408;JEAN FASANO;V;ANTONIA KLEBIANA PINHEIRO DE SOUSA;V;JOSIMAR GUIMARAES DOS SANTOS;V
7420;JEAN FASANO;V;ANTONIA KLEBIANA PINHEIRO DE SOUSA;V;JOSIMAR GUIMARAES DOS SANTOS;V
8105;JEAN FASANO;V;ANTONIA KLEBIANA PINHEIRO DE SOUSA;V;JOSIMAR GUIMARAES DOS SANTOS;V
100094;JEAN FASANO;V;ANTONIA KLEBIANA PINHEIRO DE SOUSA;V;JOSIMAR GUIMARAES DOS SANTOS;V
12087;JEAN FASANO;V;ANTONIA KLEBIANA PINHEIRO DE SOUSA;V;JOSIMAR GUIMARAES DOS SANTOS;V
6842;JEAN FASANO;V;ANTONIA KLEBIANA PINHEIRO DE SOUSA;V;JOSIMAR GUIMARAES DOS SANTOS;V
50740;JEAN FASANO;V;ANTONIA KLEBIANA PINHEIRO DE SOUSA;V;JOSIMAR GUIMARAES DOS SANTOS;V
7412;JEAN FASANO;V;ANTONIA KLEBIANA PINHEIRO DE SOUSA;V;JOSIMAR GUIMARAES DOS SANTOS;V
7409;JEAN FASANO;V;ANTONIA KLEBIANA PINHEIRO DE SOUSA;V;JOSIMAR GUIMARAES DOS SANTOS;V
6370;JEAN FASANO;V;ANTONIA KLEBIANA PINHEIRO DE SOUSA;V;SHARLES FERNANDES DE SOUSA;V
5921;JEAN FASANO;V;ANTONIA KLEBIANA PINHEIRO DE SOUSA;V;SHARLES FERNANDES DE SOUSA;V
6577;JEAN FASANO;V;ANTONIA KLEBIANA PINHEIRO DE SOUSA;V;SHARLES FERNANDES DE SOUSA;V
12455;JEAN FASANO;V;ANTONIA KLEBIANA PINHEIRO DE SOUSA;V;SHARLES FERNANDES DE SOUSA;V
82716;JEAN FASANO;V;ANTONIA KLEBIANA PINHEIRO DE SOUSA;V;SHARLES FERNANDES DE SOUSA;V
7559;JEAN FASANO;V;ANTONIA KLEBIANA PINHEIRO DE SOUSA;V;SHARLES FERNANDES DE SOUSA;V
6047;JEAN FASANO;V;ANTONIA KLEBIANA PINHEIRO DE SOUSA;V;SHARLES FERNANDES DE SOUSA;V
21079;JEAN FASANO;V;ANTONIA KLEBIANA PINHEIRO DE SOUSA;V;SHARLES FERNANDES DE SOUSA;V
92839;JEAN FASANO;V;ANTONIA KLEBIANA PINHEIRO DE SOUSA;V;SHARLES FERNANDES DE SOUSA;V
96349;JEAN FASANO;V;ANTONIA KLEBIANA PINHEIRO DE SOUSA;V;SHARLES FERNANDES DE SOUSA;V
88686;JEAN FASANO;V;ANTONIA KLEBIANA PINHEIRO DE SOUSA;V;SHARLES FERNANDES DE SOUSA;V
6046;JEAN FASANO;V;ANTONIA KLEBIANA PINHEIRO DE SOUSA;V;SHARLES FERNANDES DE SOUSA;V
102175;JEAN FASANO;V;ANTONIA KLEBIANA PINHEIRO DE SOUSA;V;SHARLES FERNANDES DE SOUSA;V
92197;JEAN FASANO;V;ANTONIA KLEBIANA PINHEIRO DE SOUSA;V;SHARLES FERNANDES DE SOUSA;V
8167;JEAN FASANO;V;ANTONIA KLEBIANA PINHEIRO DE SOUSA;V;SHARLES FERNANDES DE SOUSA;V
7039;JEAN FASANO;V;ANTONIA KLEBIANA PINHEIRO DE SOUSA;V;SHARLES FERNANDES DE SOUSA;V
30409;JEAN FASANO;V;ANTONIA KLEBIANA PINHEIRO DE SOUSA;V;SHARLES FERNANDES DE SOUSA;V
7497;JEAN FASANO;V;ANTONIA KLEBIANA PINHEIRO DE SOUSA;V;SHARLES FERNANDES DE SOUSA;V
16130;JEAN FASANO;V;ANTONIA KLEBIANA PINHEIRO DE SOUSA;V;SHARLES FERNANDES DE SOUSA;V
7501;JEAN FASANO;V;ANTONIA KLEBIANA PINHEIRO DE SOUSA;V;SHARLES FERNANDES DE SOUSA;V
96331;JEAN FASANO;V;ANTONIA KLEBIANA PINHEIRO DE SOUSA;V;WELINGTON DOUGLAS DE LIMA;V
8286;JEAN FASANO;V;ANTONIA KLEBIANA PINHEIRO DE SOUSA;V;WELINGTON DOUGLAS DE LIMA;V
8288;JEAN FASANO;V;ANTONIA KLEBIANA PINHEIRO DE SOUSA;V;WELINGTON DOUGLAS DE LIMA;V
92939;JEAN FASANO;V;ANTONIA KLEBIANA PINHEIRO DE SOUSA;V;WELINGTON DOUGLAS DE LIMA;V
7429;JEAN FASANO;V;ANTONIA KLEBIANA PINHEIRO DE SOUSA;V;WELINGTON DOUGLAS DE LIMA;V
7430;JEAN FASANO;V;ANTONIA KLEBIANA PINHEIRO DE SOUSA;V;WELINGTON DOUGLAS DE LIMA;V
7435;JEAN FASANO;V;ANTONIA KLEBIANA PINHEIRO DE SOUSA;V;WELINGTON DOUGLAS DE LIMA;V
100093;JEAN FASANO;V;ANTONIA KLEBIANA PINHEIRO DE SOUSA;V;WELINGTON DOUGLAS DE LIMA;V
7437;JEAN FASANO;V;ANTONIA KLEBIANA PINHEIRO DE SOUSA;V;WELINGTON DOUGLAS DE LIMA;V
8523;JEAN FASANO;V;ANTONIA KLEBIANA PINHEIRO DE SOUSA;V;WELINGTON DOUGLAS DE LIMA;V
44965;JEAN FASANO;V;ANTONIA KLEBIANA PINHEIRO DE SOUSA;V;WELINGTON DOUGLAS DE LIMA;V
7424;JEAN FASANO;V;ANTONIA KLEBIANA PINHEIRO DE SOUSA;V;WELINGTON DOUGLAS DE LIMA;V
97816;JEAN FASANO;V;ANTONIA KLEBIANA PINHEIRO DE SOUSA;V;WELINGTON DOUGLAS DE LIMA;V
23659;JEAN FASANO;V;ANTONIA KLEBIANA PINHEIRO DE SOUSA;V;WELINGTON DOUGLAS DE LIMA;V
7505;JEAN FASANO;V;ANTONIA KLEBIANA PINHEIRO DE SOUSA;V;WELINGTON DOUGLAS DE LIMA;V
12436;JEAN FASANO;V;ANTONIA KLEBIANA PINHEIRO DE SOUSA;V;WELINGTON DOUGLAS DE LIMA;V
7442;JEAN FASANO;V;ANTONIA KLEBIANA PINHEIRO DE SOUSA;V;WELINGTON DOUGLAS DE LIMA;V
7555;JEAN FASANO;V;ANTONIA KLEBIANA PINHEIRO DE SOUSA;V;WELINGTON DOUGLAS DE LIMA;V
8522;JEAN FASANO;V;ANTONIA KLEBIANA PINHEIRO DE SOUSA;V;WELINGTON DOUGLAS DE LIMA;V
6786;JEAN FASANO;V;ANTONIA KLEBIANA PINHEIRO DE SOUSA;V;WELINGTON DOUGLAS DE LIMA;V
7041;JEAN FASANO;V;ANTONIA KLEBIANA PINHEIRO DE SOUSA;V;ALESSANDRA DE AMORIM BORGES;V
112815;JEAN FASANO;V;ANTONIA KLEBIANA PINHEIRO DE SOUSA;V;ALESSANDRA DE AMORIM BORGES;V
6790;JEAN FASANO;V;ANTONIA KLEBIANA PINHEIRO DE SOUSA;V;ALESSANDRA DE AMORIM BORGES;V
8368;JEAN FASANO;V;ANTONIA KLEBIANA PINHEIRO DE SOUSA;V;ALESSANDRA DE AMORIM BORGES;V
12765;JEAN FASANO;V;ANTONIA KLEBIANA PINHEIRO DE SOUSA;V;ALESSANDRA DE AMORIM BORGES;V
6573;JEAN FASANO;V;ANTONIA KLEBIANA PINHEIRO DE SOUSA;V;ALESSANDRA DE AMORIM BORGES;V
6092;JEAN FASANO;V;ANTONIA KLEBIANA PINHEIRO DE SOUSA;V;ALESSANDRA DE AMORIM BORGES;V
6649;JEAN FASANO;V;ANTONIA KLEBIANA PINHEIRO DE SOUSA;V;ALESSANDRA DE AMORIM BORGES;V
92927;JEAN FASANO;V;ANTONIA KLEBIANA PINHEIRO DE SOUSA;V;ALESSANDRA DE AMORIM BORGES;V
97031;JEAN FASANO;V;ANTONIA KLEBIANA PINHEIRO DE SOUSA;V;ALESSANDRA DE AMORIM BORGES;V
91510;JEAN FASANO;V;ANTONIA KLEBIANA PINHEIRO DE SOUSA;V;ALESSANDRA DE AMORIM BORGES;V
94179;JEAN FASANO;V;ANTONIA KLEBIANA PINHEIRO DE SOUSA;V;ALESSANDRA DE AMORIM BORGES;V
7964;JEAN FASANO;V;ANTONIA KLEBIANA PINHEIRO DE SOUSA;V;ALESSANDRA DE AMORIM BORGES;V
7962;JEAN FASANO;V;ANTONIA KLEBIANA PINHEIRO DE SOUSA;V;ALESSANDRA DE AMORIM BORGES;V
12276;JEAN FASANO;V;ANTONIA KLEBIANA PINHEIRO DE SOUSA;V;ALESSANDRA DE AMORIM BORGES;V
6354;JEAN FASANO;V;ANTONIA KLEBIANA PINHEIRO DE SOUSA;V;ALESSANDRA DE AMORIM BORGES;V
94703;JEAN FASANO;V;ANTONIA KLEBIANA PINHEIRO DE SOUSA;V;ALESSANDRA DE AMORIM BORGES;V
7509;JEAN FASANO;V;ANTONIA KLEBIANA PINHEIRO DE SOUSA;V;ALESSANDRA DE AMORIM BORGES;V
51594;JEAN FASANO;V;ANTONIA KLEBIANA PINHEIRO DE SOUSA;V;ALESSANDRA DE AMORIM BORGES;V
6536;JEAN FASANO;V;ANTONIA KLEBIANA PINHEIRO DE SOUSA;V;ALESSANDRA DE AMORIM BORGES;V
7511;JEAN FASANO;V;ANTONIA KLEBIANA PINHEIRO DE SOUSA;V;ALESSANDRA DE AMORIM BORGES;V
17171;JEAN FASANO;V;ANTONIA KLEBIANA PINHEIRO DE SOUSA;V;ALESSANDRA DE AMORIM BORGES;V
7510;JEAN FASANO;V;ANTONIA KLEBIANA PINHEIRO DE SOUSA;V;ALESSANDRA DE AMORIM BORGES;V
7513;JEAN FASANO;V;ANTONIA KLEBIANA PINHEIRO DE SOUSA;V;ALESSANDRA DE AMORIM BORGES;V
7044;JEAN FASANO;V;ANTONIA KLEBIANA PINHEIRO DE SOUSA;V;ALESSANDRA DE AMORIM BORGES;V
7043;JEAN FASANO;V;ANTONIA KLEBIANA PINHEIRO DE SOUSA;V;ALESSANDRA DE AMORIM BORGES;V
41241;RAFAEL OLIVEIRA;V;;F;SAMARA XAVIER DA SILVA;V
7250;RAFAEL OLIVEIRA;V;;F;SAMARA XAVIER DA SILVA;V
92790;RAFAEL OLIVEIRA;V;;F;SAMARA XAVIER DA SILVA;V
17120;RAFAEL OLIVEIRA;V;;F;SAMARA XAVIER DA SILVA;V
14813;RAFAEL OLIVEIRA;V;;F;SAMARA XAVIER DA SILVA;V
45630;RAFAEL OLIVEIRA;V;;F;SAMARA XAVIER DA SILVA;V
15626;RAFAEL OLIVEIRA;V;;F;SAMARA XAVIER DA SILVA;V
16287;RAFAEL OLIVEIRA;V;;F;SAMARA XAVIER DA SILVA;V
93785;RAFAEL OLIVEIRA;V;;F;SAMARA XAVIER DA SILVA;V
45402;RAFAEL OLIVEIRA;V;;F;SAMARA XAVIER DA SILVA;V
14198;RAFAEL OLIVEIRA;V;;F;SAMARA XAVIER DA SILVA;V
11628;RAFAEL OLIVEIRA;V;;F;SAMARA XAVIER DA SILVA;V
11629;RAFAEL OLIVEIRA;V;;F;SAMARA XAVIER DA SILVA;V
14196;RAFAEL OLIVEIRA;V;;F;SAMARA XAVIER DA SILVA;V
16723;RAFAEL OLIVEIRA;V;;F;SAMARA XAVIER DA SILVA;V
6916;RAFAEL OLIVEIRA;V;;F;SAMARA XAVIER DA SILVA;V
6912;RAFAEL OLIVEIRA;V;;F;SAMARA XAVIER DA SILVA;V
6908;RAFAEL OLIVEIRA;V;;F;SAMARA XAVIER DA SILVA;V
92807;RAFAEL OLIVEIRA;V;;F;NAYARA APARECIDA WESEN PINTO DE LIMA;V
14816;RAFAEL OLIVEIRA;V;;F;NAYARA APARECIDA WESEN PINTO DE LIMA;V
6904;RAFAEL OLIVEIRA;V;;F;NAYARA APARECIDA WESEN PINTO DE LIMA;V
44736;RAFAEL OLIVEIRA;V;;F;NAYARA APARECIDA WESEN PINTO DE LIMA;V
43578;RAFAEL OLIVEIRA;V;;F;NAYARA APARECIDA WESEN PINTO DE LIMA;V
89183;RAFAEL OLIVEIRA;V;;F;NAYARA APARECIDA WESEN PINTO DE LIMA;V
6917;RAFAEL OLIVEIRA;V;;F;NAYARA APARECIDA WESEN PINTO DE LIMA;V
92795;RAFAEL OLIVEIRA;V;;F;NAYARA APARECIDA WESEN PINTO DE LIMA;V
93912;RAFAEL OLIVEIRA;V;;F;MILENE SUELLEN DIAS BENTES;V
23356;RAFAEL OLIVEIRA;V;;F;MILENE SUELLEN DIAS BENTES;V
6977;RAFAEL OLIVEIRA;V;;F;MILENE SUELLEN DIAS BENTES;V
99905;RAFAEL OLIVEIRA;V;;F;MILENE SUELLEN DIAS BENTES;V
7707;RAFAEL OLIVEIRA;V;;F;MILENE SUELLEN DIAS BENTES;V
93184;RAFAEL OLIVEIRA;V;;F;MILENE SUELLEN DIAS BENTES;V
6238;RAFAEL OLIVEIRA;V;;F;MILENE SUELLEN DIAS BENTES;V
7274;RAFAEL OLIVEIRA;V;;F;MILENE SUELLEN DIAS BENTES;V
7609;RAFAEL OLIVEIRA;V;;F;MILENE SUELLEN DIAS BENTES;V
6317;RAFAEL OLIVEIRA;V;;F;MILENE SUELLEN DIAS BENTES;V
32739;RAFAEL OLIVEIRA;V;;F;MILENE SUELLEN DIAS BENTES;V
100848;RAFAEL OLIVEIRA;V;;F;MILENE SUELLEN DIAS BENTES;V
7284;RAFAEL OLIVEIRA;V;;F;MILENE SUELLEN DIAS BENTES;V
6980;RAFAEL OLIVEIRA;V;;F;MILENE SUELLEN DIAS BENTES;V
7610;RAFAEL OLIVEIRA;V;;F;MILENE SUELLEN DIAS BENTES;V
7708;RAFAEL OLIVEIRA;V;;F;MILENE SUELLEN DIAS BENTES;V
93185;RAFAEL OLIVEIRA;V;;F;MILENE SUELLEN DIAS BENTES;V
92906;RAFAEL OLIVEIRA;V;;F;MILENE SUELLEN DIAS BENTES;V
15485;ALEX CARNALI;V;;F;RENATA CARVALHO DA SILVA LOURENCO;V
15483;ALEX CARNALI;V;;F;RENATA CARVALHO DA SILVA LOURENCO;V
15487;ALEX CARNALI;V;;F;RENATA CARVALHO DA SILVA LOURENCO;V
7782;ALEX CARNALI;V;;F;RENATA CARVALHO DA SILVA LOURENCO;V
7784;ALEX CARNALI;V;;F;RENATA CARVALHO DA SILVA LOURENCO;V
33334;ALEX CARNALI;V;;F;RENATA CARVALHO DA SILVA LOURENCO;V
7777;ALEX CARNALI;V;;F;RENATA CARVALHO DA SILVA LOURENCO;V
96947;ALEX CARNALI;V;;F;RENATA CARVALHO DA SILVA LOURENCO;V
15492;ALEX CARNALI;V;;F;RENATA CARVALHO DA SILVA LOURENCO;V
15586;ALEX CARNALI;V;;F;RENATA CARVALHO DA SILVA LOURENCO;V
102097;ALEX CARNALI;V;;F;RENATA CARVALHO DA SILVA LOURENCO;V
84538;ALEX CARNALI;V;;F;RENATA CARVALHO DA SILVA LOURENCO;V
36285;ALEX CARNALI;V;;F;RENATA CARVALHO DA SILVA LOURENCO;V
92677;ALEX CARNALI;V;;F;RENATA CARVALHO DA SILVA LOURENCO;V
92678;ALEX CARNALI;V;;F;RENATA CARVALHO DA SILVA LOURENCO;V
5634;ALEX CARNALI;V;;F;RENATA CARVALHO DA SILVA LOURENCO;V
22368;ALEX CARNALI;V;;F;RENATA CARVALHO DA SILVA LOURENCO;V
23211;ALEX CARNALI;V;;F;RENATA CARVALHO DA SILVA LOURENCO;V
5685;ALEX CARNALI;V;;F;RENATA CARVALHO DA SILVA LOURENCO;V
7907;ALEX CARNALI;V;;F;RENATA CARVALHO DA SILVA LOURENCO;V
5645;ALEX CARNALI;V;;F;RENATA CARVALHO DA SILVA LOURENCO;V
5647;ALEX CARNALI;V;;F;RENATA CARVALHO DA SILVA LOURENCO;V
5653;ALEX CARNALI;V;;F;RENATA CARVALHO DA SILVA LOURENCO;V
104111;ALEX CARNALI;V;;F;RENATA CARVALHO DA SILVA LOURENCO;V
46541;ALEX CARNALI;V;;F;RENATA CARVALHO DA SILVA LOURENCO;V
17172;ALEX CARNALI;V;;F;RENATA CARVALHO DA SILVA LOURENCO;V
21736;ALEX CARNALI;V;;F;RENATA CARVALHO DA SILVA LOURENCO;V
21735;ALEX CARNALI;V;;F;RENATA CARVALHO DA SILVA LOURENCO;V
5746;ALEX CARNALI;V;;F;RENATA CARVALHO DA SILVA LOURENCO;V
6637;ALEX CARNALI;V;;F;RENATA CARVALHO DA SILVA LOURENCO;V
13949;ALEX CARNALI;V;;F;RENATA CARVALHO DA SILVA LOURENCO;V
23044;ALEX CARNALI;V;;F;RENATA CARVALHO DA SILVA LOURENCO;V
92236;ALEX CARNALI;V;;F;FERNANDA RODRIGUES KUHN;V
14100;ALEX CARNALI;V;;F;FERNANDA RODRIGUES KUHN;V
22829;ALEX CARNALI;V;;F;FERNANDA RODRIGUES KUHN;V
22843;ALEX CARNALI;V;;F;FERNANDA RODRIGUES KUHN;V
34418;ALEX CARNALI;V;;F;FERNANDA RODRIGUES KUHN;V
89276;ALEX CARNALI;V;;F;FERNANDA RODRIGUES KUHN;V
41583;ALEX CARNALI;V;;F;FERNANDA RODRIGUES KUHN;V
15447;ALEX CARNALI;V;;F;FERNANDA RODRIGUES KUHN;V
15455;ALEX CARNALI;V;;F;FERNANDA RODRIGUES KUHN;V
22833;ALEX CARNALI;V;;F;FERNANDA RODRIGUES KUHN;V
15688;ALEX CARNALI;V;;F;FERNANDA RODRIGUES KUHN;V
102179;ALEX CARNALI;V;;F;FERNANDA RODRIGUES KUHN;V
29325;ALEX CARNALI;V;;F;FERNANDA RODRIGUES KUHN;V
15450;ALEX CARNALI;V;;F;FERNANDA RODRIGUES KUHN;V
98292;ALEX CARNALI;V;;F;FERNANDA RODRIGUES KUHN;V
15449;ALEX CARNALI;V;;F;FERNANDA RODRIGUES KUHN;V
101294;ALEX CARNALI;V;;F;FERNANDA RODRIGUES KUHN;V
22837;ALEX CARNALI;V;;F;FERNANDA RODRIGUES KUHN;V
16021;ALEX CARNALI;V;;F;FERNANDA RODRIGUES KUHN;V
22832;ALEX CARNALI;V;;F;FERNANDA RODRIGUES KUHN;V
22841;ALEX CARNALI;V;;F;FERNANDA RODRIGUES KUHN;V
25673;ALEX CARNALI;V;;F;FERNANDA RODRIGUES KUHN;V
87585;ALEX CARNALI;V;;F;FERNANDA RODRIGUES KUHN;V
22828;ALEX CARNALI;V;;F;FERNANDA RODRIGUES KUHN;V
14177;ALEX CARNALI;V;;F;FERNANDA RODRIGUES KUHN;V
5958;ALEX CARNALI;V;;F;FELIPE CAMARGO PASSAGEM VIEIRA;V
5663;ALEX CARNALI;V;;F;FELIPE CAMARGO PASSAGEM VIEIRA;V
5788;ALEX CARNALI;V;;F;FELIPE CAMARGO PASSAGEM VIEIRA;V
7905;ALEX CARNALI;V;;F;FELIPE CAMARGO PASSAGEM VIEIRA;V
7688;ALEX CARNALI;V;;F;FELIPE CAMARGO PASSAGEM VIEIRA;V
7819;ALEX CARNALI;V;;F;FELIPE CAMARGO PASSAGEM VIEIRA;V
5809;ALEX CARNALI;V;;F;FELIPE CAMARGO PASSAGEM VIEIRA;V
97801;ALEX CARNALI;V;;F;FELIPE CAMARGO PASSAGEM VIEIRA;V
87918;ALEX CARNALI;V;;F;FELIPE CAMARGO PASSAGEM VIEIRA;V
5981;ALEX CARNALI;V;;F;FELIPE CAMARGO PASSAGEM VIEIRA;V
33555;ALEX CARNALI;V;;F;FELIPE CAMARGO PASSAGEM VIEIRA;V
7507;ALEX CARNALI;V;;F;FELIPE CAMARGO PASSAGEM VIEIRA;V
97859;ALEX CARNALI;V;;F;FELIPE CAMARGO PASSAGEM VIEIRA;V
5664;ALEX CARNALI;V;;F;FELIPE CAMARGO PASSAGEM VIEIRA;V
34007;ALEX CARNALI;V;;F;FELIPE CAMARGO PASSAGEM VIEIRA;V
8187;ALEX CARNALI;V;;F;FELIPE CAMARGO PASSAGEM VIEIRA;V
7860;ALEX CARNALI;V;;F;FELIPE CAMARGO PASSAGEM VIEIRA;V
5964;ALEX CARNALI;V;;F;FELIPE CAMARGO PASSAGEM VIEIRA;V
79797;ALEX CARNALI;V;;F;FELIPE CAMARGO PASSAGEM VIEIRA;V
89818;ALEX CARNALI;V;;F;FELIPE CAMARGO PASSAGEM VIEIRA;V
6633;ALEX CARNALI;V;;F;FELIPE CAMARGO PASSAGEM VIEIRA;V
6678;ALEX CARNALI;V;;F;FELIPE CAMARGO PASSAGEM VIEIRA;V
7491;ALEX CARNALI;V;;F;FELIPE CAMARGO PASSAGEM VIEIRA;V
7498;ALEX CARNALI;V;;F;FELIPE CAMARGO PASSAGEM VIEIRA;V
7489;ALEX CARNALI;V;;F;FELIPE CAMARGO PASSAGEM VIEIRA;V
7646;ALEX CARNALI;V;;F;FELIPE CAMARGO PASSAGEM VIEIRA;V
11525;ALEX CARNALI;V;;F;FELIPE CAMARGO PASSAGEM VIEIRA;V
23540;ALEX CARNALI;V;;F;FELIPE CAMARGO PASSAGEM VIEIRA;V
7592;ALEX CARNALI;V;;F;FELIPE CAMARGO PASSAGEM VIEIRA;V
95003;ALEX CARNALI;V;;F;FELIPE CAMARGO PASSAGEM VIEIRA;V
5812;ALEX CARNALI;V;;F;FELIPE CAMARGO PASSAGEM VIEIRA;V
7504;ALEX CARNALI;V;;F;FELIPE CAMARGO PASSAGEM VIEIRA;V
83583;ALEX CARNALI;V;;F;FELIPE CAMARGO PASSAGEM VIEIRA;V
94763;ALEX CARNALI;V;;F;FELIPE CAMARGO PASSAGEM VIEIRA;V
6757;ALEX CARNALI;V;;F;FELIPE CAMARGO PASSAGEM VIEIRA;V
7365;ALEX CARNALI;V;;F;FELIPE CAMARGO PASSAGEM VIEIRA;V
99746;ALEX CARNALI;V;;F;FELIPE CAMARGO PASSAGEM VIEIRA;V
6739;ALEX CARNALI;V;;F;FELIPE CAMARGO PASSAGEM VIEIRA;V
6742;ALEX CARNALI;V;;F;FELIPE CAMARGO PASSAGEM VIEIRA;V
6762;ALEX CARNALI;V;;F;FELIPE CAMARGO PASSAGEM VIEIRA;V
86430;ALEX CARNALI;V;;F;SAULO DE ALMEIDA SOUZA;V
36675;ALEX CARNALI;V;;F;SAULO DE ALMEIDA SOUZA;V
89225;ALEX CARNALI;V;;F;SAULO DE ALMEIDA SOUZA;V
89795;ALEX CARNALI;V;;F;SAULO DE ALMEIDA SOUZA;V
92226;ALEX CARNALI;V;;F;SAULO DE ALMEIDA SOUZA;V
7806;ALEX CARNALI;V;;F;SAULO DE ALMEIDA SOUZA;V
12749;ALEX CARNALI;V;;F;SAULO DE ALMEIDA SOUZA;V
22372;ALEX CARNALI;V;;F;SAULO DE ALMEIDA SOUZA;V
79675;ALEX CARNALI;V;;F;SAULO DE ALMEIDA SOUZA;V
95780;ALEX CARNALI;V;;F;SAULO DE ALMEIDA SOUZA;V
94261;ALEX CARNALI;V;;F;SAULO DE ALMEIDA SOUZA;V
95875;ALEX CARNALI;V;;F;SAULO DE ALMEIDA SOUZA;V
91959;ALEX CARNALI;V;;F;SAULO DE ALMEIDA SOUZA;V
92039;ALEX CARNALI;V;;F;SAULO DE ALMEIDA SOUZA;V
92040;ALEX CARNALI;V;;F;SAULO DE ALMEIDA SOUZA;V
89812;ALEX CARNALI;V;;F;SAULO DE ALMEIDA SOUZA;V
17170;ALEX CARNALI;V;;F;SAULO DE ALMEIDA SOUZA;V
8329;ALEX CARNALI;V;;F;SAULO DE ALMEIDA SOUZA;V
23485;ALEX CARNALI;V;;F;SAULO DE ALMEIDA SOUZA;V
7803;ALEX CARNALI;V;;F;SAULO DE ALMEIDA SOUZA;V
99696;ALEX CARNALI;V;;F;SAULO DE ALMEIDA SOUZA;V
8350;ALEX CARNALI;V;;F;SAULO DE ALMEIDA SOUZA;V
8295;ALEX CARNALI;V;;F;SAULO DE ALMEIDA SOUZA;V
5633;ALEX CARNALI;V;;F;SAULO DE ALMEIDA SOUZA;V
92789;ALEX CARNALI;V;;F;SAULO DE ALMEIDA SOUZA;V
5692;ALEX CARNALI;V;;F;SAULO DE ALMEIDA SOUZA;V
12389;ALEX CARNALI;V;;F;SAULO DE ALMEIDA SOUZA;V
23116;ALEX CARNALI;V;;F;SAULO DE ALMEIDA SOUZA;V
95876;ALEX CARNALI;V;;F;SAULO DE ALMEIDA SOUZA;V
97633;ALEX CARNALI;V;;F;SAULO DE ALMEIDA SOUZA;V
95874;ALEX CARNALI;V;;F;SAULO DE ALMEIDA SOUZA;V
95873;ALEX CARNALI;V;;F;SAULO DE ALMEIDA SOUZA;V
102698;ALEX CARNALI;V;;F;SAULO DE ALMEIDA SOUZA;V
7152;ALEX CARNALI;V;;F;SAULO DE ALMEIDA SOUZA;V
21665;ALEX CARNALI;V;;F;SAULO DE ALMEIDA SOUZA;V
5966;ALEX CARNALI;V;;F;SAULO DE ALMEIDA SOUZA;V
23141;ALEX CARNALI;V;;F;SAULO DE ALMEIDA SOUZA;V
23119;ALEX CARNALI;V;;F;SAULO DE ALMEIDA SOUZA;V
6138;CLODOALDO GONCALVES SANTOS;V;;F;MARCUS VINICIUS SILVA BASTOS;V
7867;CLODOALDO GONCALVES SANTOS;V;;F;MARCUS VINICIUS SILVA BASTOS;V
91848;CLODOALDO GONCALVES SANTOS;V;;F;MARCOS ROBERTO MACHADO LINS;V
90551;CLODOALDO GONCALVES SANTOS;V;;F;MARCOS ROBERTO MACHADO LINS;V
15708;CLODOALDO GONCALVES SANTOS;V;;F;MARCOS ROBERTO MACHADO LINS;V
90553;CLODOALDO GONCALVES SANTOS;V;;F;MARCOS ROBERTO MACHADO LINS;V
91849;CLODOALDO GONCALVES SANTOS;V;;F;MARCOS ROBERTO MACHADO LINS;V
22605;RALPH BLANKE GOTARDI;V;;F;CLAILTON DUARTE DA SILVA;V
22603;RALPH BLANKE GOTARDI;V;;F;CLAILTON DUARTE DA SILVA;V
16577;RALPH BLANKE GOTARDI;V;;F;CLAILTON DUARTE DA SILVA;V
101795;RALPH BLANKE GOTARDI;V;;F;LUCIVANIA APARECIDA DA SILVA;V
15593;RALPH BLANKE GOTARDI;V;;F;LUCIVANIA APARECIDA DA SILVA;V
7822;RALPH BLANKE GOTARDI;V;;F;LUCIVANIA APARECIDA DA SILVA;V
7251;RAFAEL OLIVEIRA;V;;F;SAMARA XAVIER DA SILVA;V
95845;RAFAEL OLIVEIRA;V;;F;SAMARA XAVIER DA SILVA;V
94226;RAFAEL OLIVEIRA;V;;F;SAMARA XAVIER DA SILVA;V
15888;RAFAEL OLIVEIRA;V;;F;NAYARA APARECIDA WESEN PINTO DE LIMA;V
6920;RAFAEL OLIVEIRA;V;;F;NAYARA APARECIDA WESEN PINTO DE LIMA;V
7744;LEONARD DAHAN;V;;F;LUIS ANTONIO ALVES FERREIRA;V
11758;GIULIANO NEIVA MELO;V;;F;ANDRE AYRES AURELIANO MARQUES;V
7451;ALUISIO ANDRADE DA SILVA JUNIOR;V;;F;MARCOS EDUARDO GOUVEIA DE SALLES;V
8183;ALEX CARNALI;V;;F;FELIPE CAMARGO PASSAGEM VIEIRA;V
94741;RALPH BLANKE GOTARDI;V;;F;WANDERLEY SANTIAGO DE ABREU;V
91096;RALPH BLANKE GOTARDI;V;;F;WANDERLEY SANTIAGO DE ABREU;V
91276;RALPH BLANKE GOTARDI;V;;F;ISABELLE ROCHA MODESTO;V
94277;CLODOALDO GONCALVES SANTOS;V;;F;MARCOS ROBERTO MACHADO LINS;V
94581;RAFAEL OLIVEIRA;V;;F;SAMARA XAVIER DA SILVA;V
69041;RAFAEL OLIVEIRA;V;;F;NAYARA APARECIDA WESEN PINTO DE LIMA;V
16734;ANDERSON ARAUJO;V;;F;ARMIN SCHURT JUNIOR;V
22771;ANDERSON ARAUJO;V;;F;ARMIN SCHURT JUNIOR;V
22773;ANDERSON ARAUJO;V;;F;ARMIN SCHURT JUNIOR;V
15039;ANDERSON ARAUJO;V;;F;ARMIN SCHURT JUNIOR;V
15022;ANDERSON ARAUJO;V;;F;ARMIN SCHURT JUNIOR;V
79778;CLODOALDO GONCALVES SANTOS;V;;F;MARCUS VINICIUS SILVA BASTOS;V
95131;CLODOALDO GONCALVES SANTOS;V;;F;SORAYA ALESSANDRA TAVARES SANTOS;V
94425;CLODOALDO GONCALVES SANTOS;V;;F;SORAYA ALESSANDRA TAVARES SANTOS;V
22437;CLODOALDO GONCALVES SANTOS;V;;F;WELLINGTON QUIRINO DE JESUS;V
8287;ANDERSON ARAUJO;V;;F;ALESSANDRO DA SILVA PORTELLA;V
16138;ANDERSON ARAUJO;V;;F;RAFAELLA TESSUTO FEIER;V
21826;JEAN FASANO;V;ANDERSON SANTOS SILVA;V;CAIO AUGUSTO DE BRITO;V
97857;ALEX CARNALI;V;;F;FELIPE CAMARGO PASSAGEM VIEIRA;V
94331;ALEX CARNALI;V;;F;FELIPE CAMARGO PASSAGEM VIEIRA;V
94334;ALEX CARNALI;V;;F;FELIPE CAMARGO PASSAGEM VIEIRA;V
94333;ALEX CARNALI;V;;F;FELIPE CAMARGO PASSAGEM VIEIRA;V
15697;ALUISIO ANDRADE DA SILVA JUNIOR;V;;F;ANTONIO MARTINS DA SILVA BERGAMASCO;V
89937;RALPH BLANKE GOTARDI;V;;F;LUCIVANIA APARECIDA DA SILVA;V
25664;ANDERSON ARAUJO;V;;F;JOSE NATAL DE OLIVEIRA;V
25742;ANDERSON ARAUJO;V;;F;JOSE NATAL DE OLIVEIRA;V
22760;ANDERSON ARAUJO;V;;F;ARMIN SCHURT JUNIOR;V
22765;ANDERSON ARAUJO;V;;F;ARMIN SCHURT JUNIOR;V
95134;ANDERSON ARAUJO;V;;F;RAFAELLA TESSUTO FEIER;V
32094;RALPH BLANKE GOTARDI;V;;F;WANDERLEY SANTIAGO DE ABREU;V
23134;RALPH BLANKE GOTARDI;V;;F;WANDERLEY SANTIAGO DE ABREU;V
23133;RALPH BLANKE GOTARDI;V;;F;ISABELLE ROCHA MODESTO;V
34257;RALPH BLANKE GOTARDI;V;;F;CLAILTON DUARTE DA SILVA;V
91260;RALPH BLANKE GOTARDI;V;;F;CLAILTON DUARTE DA SILVA;V
12571;RALPH BLANKE GOTARDI;V;;F;ISAAC COSTA E SILVA DE ARAUJO;V
45617;CLODOALDO GONCALVES SANTOS;V;;F;SORAYA ALESSANDRA TAVARES SANTOS;V
32038;CLODOALDO GONCALVES SANTOS;V;;F;SORAYA ALESSANDRA TAVARES SANTOS;V
6115;CLODOALDO GONCALVES SANTOS;V;;F;WELLINGTON QUIRINO DE JESUS;V
7324;GIULIANO NEIVA MELO;V;;F;KELLY CRISTINA GOMES;V
8009;GIULIANO NEIVA MELO;V;;F;KELLY CRISTINA GOMES;V
8057;GIULIANO NEIVA MELO;V;;F;KELLY CRISTINA GOMES;V
92459;GIULIANO NEIVA MELO;V;;F;KELLY CRISTINA GOMES;V
100632;RAFAEL OLIVEIRA;V;;F;SAMARA XAVIER DA SILVA;V
89385;RAFAEL OLIVEIRA;V;;F;SAMARA XAVIER DA SILVA;V
7137;RAFAEL OLIVEIRA;V;;F;NAYARA APARECIDA WESEN PINTO DE LIMA;V
6921;RAFAEL OLIVEIRA;V;;F;NAYARA APARECIDA WESEN PINTO DE LIMA;V
16877;RAFAEL OLIVEIRA;V;;F;MILENE SUELLEN DIAS BENTES;V
7272;RAFAEL OLIVEIRA;V;;F;MILENE SUELLEN DIAS BENTES;V
14173;RAFAEL OLIVEIRA;V;;F;MILENE SUELLEN DIAS BENTES;V
92796;RAFAEL OLIVEIRA;V;;F;MILENE SUELLEN DIAS BENTES;V
7899;LEONARD DAHAN;V;;F;LUIS ANTONIO ALVES FERREIRA;V
